395,5,4,1,0,121,935,684,953
391,1,4,1,0,122,932,688,950
391,1,4,1,0,121,931,689,951
391,3,4,1,0,123,931,688,951
390,0,4,1,0,123,928,690,948
392,4,4,1,0,128,925,688,946
391,6,4,1,0,129,925,688,943
392,8,4,1,0,128,924,688,939
390,7,4,1,0,131,922,689,940
392,10,4,1,0,128,918,688,933
392,10,4,1,0,128,918,688,933
392,10,4,1,0,128,918,688,933
392,10,4,1,0,128,918,688,933
381,4,4,1,0,133,909,698,926
379,2,4,1,0,132,907,701,925
381,3,4,1,0,133,903,699,924
380,4,4,1,0,134,901,699,921
379,6,4,1,0,137,900,701,918
379,6,4,1,0,137,900,701,918
380,7,4,1,0,141,894,699,912
377,5,4,1,0,141,891,702,909
374,3,4,1,0,144,886,705,906
370,2,4,1,0,144,883,710,904
372,5,4,1,0,146,880,707,904
372,5,4,1,0,146,880,707,904
370,5,4,1,0,151,874,710,897
369,6,4,1,0,153,870,711,894
368,3,4,1,0,156,865,712,894
368,5,2,1,0,156,864,711,888
367,3,2,1,0,158,859,712,883
366,3,2,1,0,158,856,714,883
363,2,2,1,0,159,852,717,879
363,5,2,1,0,160,850,717,876
360,5,2,1,0,163,844,719,874
361,7,2,1,0,167,839,718,872
362,8,2,1,0,169,834,717,864
360,7,2,1,0,170,831,720,861
357,4,2,1,0,174,828,723,860
352,1,2,1,0,178,822,728,852
351,1,2,1,0,182,817,728,850
351,1,2,1,0,182,817,728,850
346,3,2,1,0,193,808,733,838
345,4,2,1,0,196,805,734,835
346,6,2,1,0,198,802,733,834
344,6,2,1,0,61,800,736,826
341,1,2,1,0,62,788,738,823
337,1,2,1,0,64,783,743,819
336,2,2,1,0,68,778,744,811
329,5,2,1,0,72,771,751,807
326,4,2,1,0,79,763,754,801
322,3,2,1,0,85,753,758,794
317,6,2,1,0,87,747,762,789
312,10,2,1,0,95,740,767,781
304,0,2,1,0,99,731,775,775
304,7,2,1,0,106,723,776,767
300,11,2,1,0,113,713,779,758
297,6,2,1,0,122,701,782,749
294,8,2,1,0,134,686,786,736
288,6,2,1,0,92,676,791,727
276,0,2,1,0,153,662,804,716
274,5,2,1,0,166,649,805,700
265,0,2,1,0,178,631,814,688
261,0,2,1,0,193,610,818,675
254,1,2,1,0,210,592,826,657
242,0,2,1,0,212,569,837,638
231,1,2,1,0,202,545,849,614
215,0,2,1,0,185,514,864,598
212,0,2,1,0,160,485,867,568
205,0,2,1,0,141,453,874,534
198,5,2,1,0,90,412,881,496
187,16,2,1,0,129,364,893,459
166,30,2,1,0,120,316,913,415
162,18,2,0,0,209,256,917,367
156,10,2,0,0,266,182,923,308
156,10,2,0,0,266,182,923,308
408,0,3,0,1,363,1052,671,1067
408,0,3,0,1,363,1052,671,1067
408,0,3,0,1,363,1052,671,1067
408,0,3,0,1,363,1052,671,1067
408,0,3,0,1,363,1052,671,1067
408,0,3,0,1,363,1052,671,1067
393,3,2,0,1,94,1169,686,1213
393,3,2,0,1,94,1169,686,1213
393,3,2,0,1,94,1169,686,1213
393,3,2,0,1,94,1169,686,1213
393,3,2,0,1,94,1169,686,1213
393,3,2,0,1,94,1169,686,1213
393,3,2,1,0,94,1169,686,1213
378,5,2,0,1,63,1226,702,1252
374,6,2,0,1,72,1236,705,1266
374,6,2,0,1,76,1242,706,1275
367,0,2,0,1,87,1253,712,1285
372,7,2,0,1,94,1261,707,1296
366,3,2,0,1,103,1270,714,1308
363,2,2,0,1,113,1279,716,1324
364,3,2,0,1,121,1289,715,1337
360,1,2,0,1,135,1298,720,1357
359,1,2,0,1,145,1311,721,1367
356,0,2,0,1,134,1324,723,1387
354,1,2,0,1,76,1333,725,1402
354,3,2,0,1,119,1351,725,1411
352,0,2,0,1,107,1376,728,1433
352,0,2,0,1,94,1389,728,1452
345,0,2,0,1,234,1410,735,1467
350,7,2,0,1,82,1436,729,1484
345,0,2,0,1,271,1453,734,1503
336,0,2,0,1,71,1474,743,1527
339,0,2,0,1,311,1495,741,1558
333,0,2,0,1,144,1521,747,1586
336,0,2,0,1,166,1548,743,1607
333,1,2,0,1,193,1571,747,1639
330,1,2,0,1,214,1603,749,1672
323,0,2,0,1,240,1631,757,1708
316,0,2,0,1,272,1672,764,1744
315,0,2,0,1,286,1702,765,1782
320,0,4,0,0,275,759,760,807
320,0,4,0,0,277,756,760,803
315,0,4,0,0,281,752,765,797
314,0,4,0,0,281,747,766,795
307,0,4,0,0,284,742,772,793
307,0,4,0,0,290,734,772,788
305,0,4,0,0,292,732,774,786
303,0,4,0,0,296,726,776,780
300,0,4,0,0,299,721,780,772
299,0,4,0,0,305,715,781,769
297,0,4,0,0,312,709,782,766
294,0,4,0,0,316,702,785,764
292,0,4,0,0,130,692,788,755
287,0,4,0,0,324,687,793,752
283,0,2,0,0,136,681,796,743
279,0,2,0,0,340,669,801,738
279,0,2,0,0,347,662,801,731
275,0,2,0,0,352,657,804,723
269,0,2,0,0,361,648,810,717
265,0,2,0,0,369,639,814,711
264,0,2,0,0,382,622,815,705
265,0,2,1,0,388,616,815,697
255,0,2,1,0,397,606,824,692
253,0,2,1,0,402,603,826,680
250,2,2,1,0,412,585,829,677
247,2,2,1,0,416,578,833,674
245,15,2,1,0,430,567,834,656
236,20,2,1,0,219,553,844,646
233,21,2,1,0,235,531,847,633
231,22,2,1,0,120,517,848,636
220,12,2,1,0,127,509,860,626
212,4,2,1,0,121,496,867,619
209,10,2,1,0,271,484,870,595
206,3,2,1,0,158,459,873,579
206,1,2,1,0,168,441,873,570
208,10,2,0,0,307,427,871,553
206,7,2,0,0,173,409,874,541
199,1,2,0,0,184,388,880,528
198,11,2,0,0,214,366,881,506
193,51,2,0,0,218,344,887,490
192,71,2,0,0,231,325,887,469
184,99,2,0,0,242,303,896,453
175,108,2,0,0,254,274,905,442
172,141,2,0,0,271,257,907,421
168,166,2,0,0,291,227,912,398
166,196,2,0,0,309,199,914,369
164,216,2,0,0,331,159,916,348
158,238,2,0,0,353,132,922,327
160,265,2,0,0,375,132,922,327
155,295,2,0,0,396,132,922,327
152,294,2,0,0,421,132,922,327
149,357,2,1,0,446,132,922,327
144,372,2,1,0,453,132,922,327
144,434,2,1,0,481,132,922,327
140,475,2,0,0,503,132,922,327
218,512,2,0,0,513,132,922,327
368,56,2,0,0,208,845,711,868
368,57,2,1,0,209,843,711,867
368,57,2,1,0,209,841,711,868
369,59,2,1,0,209,840,711,866
369,62,2,1,0,209,840,712,866
368,61,2,1,0,209,837,709,861
371,64,2,1,0,213,836,709,860
371,64,2,1,0,80,834,711,860
369,62,2,1,0,82,832,713,858
366,59,2,1,0,87,830,717,856
362,57,2,1,0,82,828,714,855
366,62,2,1,0,83,828,715,855
365,61,2,1,0,86,823,714,847
365,61,2,1,0,84,823,714,847
365,61,2,1,0,84,821,714,845
366,61,2,1,0,88,819,711,846
368,64,2,1,0,96,815,714,848
365,60,2,1,0,98,818,715,845
365,61,2,1,0,99,816,715,843
364,61,2,1,0,98,815,715,842
365,62,2,1,0,99,811,716,841
363,59,2,1,0,97,810,716,840
363,61,2,1,0,95,806,716,839
363,61,2,1,0,96,807,718,837
362,61,2,1,0,99,804,717,834
362,61,2,1,0,101,800,718,833
361,60,2,1,0,111,800,721,833
359,58,2,1,0,242,801,719,833
360,59,2,1,0,113,798,723,833
357,56,2,1,0,103,798,723,831
357,56,2,1,0,113,793,723,829
357,56,2,1,0,245,792,723,828
357,56,2,1,0,249,793,723,829
356,56,2,1,0,250,789,723,828
357,57,2,1,0,254,787,723,826
357,56,2,1,0,244,785,723,827
357,56,2,1,0,242,785,723,826
356,59,2,1,0,242,783,724,825
356,59,2,1,0,144,785,730,826
350,53,2,1,0,132,785,731,824
349,52,2,1,0,245,784,730,823
349,52,2,0,0,247,781,732,820
348,51,2,0,0,140,780,735,819
345,48,2,0,0,253,779,735,818
345,48,2,0,0,252,777,737,819
343,46,2,0,0,252,775,736,817
343,46,2,0,0,252,771,736,816
343,49,2,0,0,252,770,737,815
342,48,2,0,0,256,769,738,814
341,49,2,0,0,261,769,739,813
340,49,2,0,0,257,768,738,813
341,50,2,0,0,259,766,740,810
340,49,2,0,0,277,766,741,808
339,48,2,0,0,263,765,743,807
337,46,2,0,0,264,763,742,805
337,46,2,0,0,267,759,743,804
336,48,2,0,0,267,758,743,803
336,49,2,0,0,285,755,745,802
334,49,2,0,0,286,754,747,801
333,48,2,0,0,289,751,746,798
333,50,2,0,0,290,750,747,797
333,50,2,0,0,293,749,748,794
332,48,2,0,0,293,745,747,793
333,48,2,0,0,298,742,751,790
329,44,2,0,0,300,738,751,789
329,46,2,0,0,302,738,751,788
329,43,2,0,0,303,737,758,785
321,32,2,0,0,304,736,757,787
322,36,2,0,0,305,736,757,787
323,36,2,0,0,305,738,756,785
326,39,2,0,0,310,734,753,782
324,37,2,0,0,309,733,756,783
323,36,2,0,0,312,729,757,782
321,34,2,0,0,314,729,759,782
322,35,2,0,0,320,728,758,781
322,33,2,0,0,323,726,758,777
320,33,2,0,0,323,725,760,776
320,33,2,0,0,318,724,760,775
323,36,2,0,0,326,722,756,773
323,36,2,0,0,321,722,757,775
321,34,2,0,0,323,719,759,776
319,28,2,0,0,326,718,760,774
318,31,2,0,0,333,716,761,770
317,31,2,0,0,336,713,763,769
318,31,2,0,0,130,714,762,768
317,30,2,0,0,131,713,763,769
317,31,2,0,0,131,713,763,769
315,31,2,0,0,132,712,765,768
314,30,2,0,0,132,710,765,767
313,29,2,0,0,133,708,767,768
313,27,2,0,0,133,708,766,767
313,27,2,0,0,133,705,766,765
313,28,2,0,0,133,702,766,762
310,26,2,0,0,131,704,770,763
312,26,2,0,0,128,704,767,764
312,28,2,0,0,128,702,768,764
311,27,2,0,0,131,701,768,761
308,26,2,0,0,344,701,772,758
309,27,2,1,0,345,700,771,754
310,28,2,1,0,348,697,770,757
310,29,2,1,0,352,693,770,755
308,28,2,1,0,351,693,772,756
308,29,2,1,0,130,690,772,756
308,30,2,1,0,352,689,772,754
308,30,2,1,0,112,689,772,755
309,31,2,1,0,110,689,771,755
309,30,2,1,0,108,690,771,753
309,30,2,1,0,109,690,771,753
308,30,2,1,0,106,689,772,752
307,26,2,1,0,103,688,772,753
307,28,2,1,0,102,687,772,755
307,29,2,1,0,102,687,772,752
307,28,2,1,0,103,688,773,751
307,30,2,1,0,104,686,773,749
305,28,2,1,0,103,684,774,750
304,27,2,1,0,103,685,775,750
308,32,2,1,0,104,685,772,748
310,35,2,1,0,107,685,769,748
310,35,2,1,0,106,685,769,748
305,32,2,1,0,105,685,775,747
305,32,2,1,0,106,685,775,747
305,33,2,1,0,108,684,775,744
309,35,2,1,0,107,684,770,747
309,36,2,1,0,102,686,770,749
308,34,2,1,0,103,686,771,749
308,34,2,1,0,103,684,771,747
308,34,2,1,0,103,685,771,747
309,37,2,1,0,97,685,770,745
307,34,2,1,0,98,685,772,745
307,34,2,1,0,95,685,772,747
306,34,2,1,0,87,684,773,747
303,30,2,1,0,88,684,776,747
303,29,2,1,0,80,686,776,749
303,29,2,1,0,80,685,776,748
302,28,2,1,0,78,687,777,750
295,21,2,1,0,78,687,785,749
295,21,2,1,0,78,686,785,751
295,20,2,1,0,77,685,785,754
301,25,2,1,0,76,685,779,754
296,21,0,1,0,331,685,783,753
296,22,0,1,0,357,685,783,754
299,24,0,1,0,352,689,781,757
299,25,0,1,0,354,687,781,756
297,23,0,1,0,352,689,783,757
297,23,0,1,0,100,689,782,757
296,22,0,1,0,111,689,783,758
296,22,0,1,0,120,689,783,757
295,20,0,1,0,132,686,784,758
295,21,0,1,0,147,688,784,757
295,21,0,1,0,154,686,785,757
295,21,0,1,0,161,689,784,758
293,19,0,0,0,168,689,787,758
294,20,0,0,0,181,689,785,757
295,21,0,0,0,192,689,784,757
294,21,0,0,0,203,688,785,757
292,20,0,0,0,217,685,788,757
290,18,0,0,0,233,685,789,756
289,18,0,0,0,250,685,790,756
290,19,0,0,0,270,687,789,756
289,18,0,0,0,289,689,790,757
289,18,0,0,0,287,689,790,755
289,19,0,0,0,298,684,791,753
289,19,0,0,0,296,684,791,753
288,20,0,0,0,325,685,792,751
288,19,0,0,0,334,685,792,751
289,20,0,0,0,335,684,790,750
289,21,0,0,0,352,684,790,750
292,23,0,0,0,338,684,788,747
292,23,0,0,0,355,683,788,748
292,22,0,0,0,316,683,788,749
292,22,0,0,0,356,683,788,749
292,23,0,0,0,357,681,788,747
292,23,0,0,0,339,682,788,748
290,21,0,0,0,358,682,789,748
290,22,0,0,0,359,681,789,747
291,24,0,0,0,360,680,789,743
290,22,0,0,0,361,678,789,744
290,22,0,0,0,362,678,789,744
290,23,0,0,0,363,677,789,743
290,21,0,0,0,363,677,789,743
292,22,0,0,0,362,677,788,743
290,19,0,0,0,363,674,789,743
289,19,0,0,0,363,675,790,743
287,20,0,0,0,365,673,792,739
288,20,0,0,0,316,677,792,737
288,20,0,0,0,316,677,792,737
288,19,0,0,0,316,676,792,736
288,18,0,0,0,315,676,792,739
288,18,0,0,0,316,675,792,737
288,18,0,0,0,316,677,792,736
288,19,0,0,0,317,677,792,736
289,18,0,0,0,363,679,791,736
289,17,0,0,0,364,678,791,737
290,17,0,0,0,364,678,790,737
289,16,0,0,0,363,678,791,738
289,15,0,0,0,365,677,791,737
290,16,0,0,0,365,678,789,738
290,16,0,0,0,365,678,790,738
290,15,0,0,0,365,677,790,737
290,13,0,0,0,366,677,789,737
290,13,0,0,0,362,679,789,739
291,14,0,0,0,362,679,788,739
291,14,0,0,0,365,678,788,738
291,14,0,0,0,364,680,789,740
290,14,0,0,0,365,678,790,738
290,13,0,0,0,360,680,790,740
290,13,0,0,0,364,679,790,741
290,13,0,0,0,364,679,790,741
290,14,0,0,0,364,679,790,741
290,13,0,0,0,364,679,790,741
290,14,0,0,0,364,678,790,741
290,13,0,0,0,363,678,790,741
290,14,0,0,0,363,678,790,741
290,13,0,0,0,362,680,790,742
290,13,0,0,0,360,680,790,743
291,14,0,0,0,358,682,789,745
290,13,0,0,0,361,678,789,744
289,12,0,0,0,362,677,790,745
288,12,0,0,0,363,677,791,742
289,15,0,0,0,363,677,790,742
289,15,0,0,0,364,675,790,741
289,16,0,0,0,364,677,790,740
289,16,0,0,0,366,676,790,739
287,15,0,0,0,364,675,793,737
288,18,0,0,0,368,675,792,735
288,19,0,0,0,366,673,792,733
288,19,0,0,0,370,672,792,734
286,16,0,0,0,370,672,793,734
292,21,0,0,0,369,670,788,733
293,19,0,0,0,371,670,787,733
294,20,0,0,0,371,668,785,734
290,19,0,0,0,371,668,790,734
291,18,0,0,0,370,668,788,734
289,17,0,0,0,371,666,791,734
289,16,0,0,0,370,666,791,735
288,16,0,0,0,370,665,792,736
288,16,0,0,0,372,663,792,735
287,13,0,1,0,372,662,793,734
287,15,0,1,0,353,662,792,734
285,13,0,1,0,374,660,794,731
283,13,0,1,0,373,662,796,731
281,13,0,1,0,374,661,798,730
280,11,0,1,0,373,661,800,730
279,10,0,1,0,375,660,801,731
278,9,0,1,0,375,659,802,730
276,9,0,1,0,375,659,803,730
274,7,0,1,0,375,657,805,729
274,7,0,1,0,117,657,806,729
274,7,0,1,0,376,657,806,729
274,8,0,1,0,376,655,806,727
275,8,0,1,0,377,655,805,729
275,7,0,1,0,115,654,805,728
275,6,0,1,0,378,654,805,728
273,6,0,1,0,379,652,806,727
274,8,0,1,0,110,651,805,725
275,8,0,1,0,110,649,805,724
273,9,0,1,0,109,648,807,723
273,9,0,1,0,111,646,807,723
271,9,0,1,0,116,646,808,721
272,12,0,1,0,114,644,807,719
272,11,0,1,0,114,642,807,720
272,11,0,1,0,115,641,807,721
269,7,0,1,0,121,632,810,718
267,5,0,1,0,121,632,813,716
266,6,0,1,0,122,630,814,713
263,3,0,1,0,124,628,816,712
263,3,0,1,0,125,625,817,709
263,3,0,1,0,125,623,817,710
262,2,0,1,0,125,621,817,711
262,0,0,1,0,127,619,817,709
264,1,0,1,0,128,619,815,705
263,0,0,1,0,129,618,816,702
262,0,0,1,0,131,616,818,699
261,0,0,1,0,131,615,819,696
261,1,0,1,0,133,613,819,696
259,0,0,1,0,136,612,821,692
259,0,0,1,0,136,609,821,693
260,0,0,1,0,138,607,820,691
256,0,0,0,0,141,603,823,689
254,0,0,0,0,143,603,826,687
253,0,0,0,0,143,602,827,688
252,0,0,0,0,143,601,828,687
252,0,0,0,0,143,600,828,686
251,0,0,0,0,143,598,829,684
249,2,0,0,0,147,595,830,682
248,0,0,0,0,146,594,831,681
247,0,0,0,0,145,592,832,682
247,0,0,0,0,145,591,832,680
245,0,0,0,0,144,590,834,680
245,0,0,0,0,144,586,835,682
246,0,0,0,0,144,585,834,681
246,0,0,0,0,142,582,833,681
246,3,0,0,0,142,580,834,681
247,4,0,0,0,143,579,833,680
246,3,0,0,0,142,579,834,680
243,0,0,0,0,138,584,836,683
239,1,0,0,0,138,583,841,681
235,0,0,0,0,137,581,844,682
230,0,0,0,0,135,582,850,684
228,0,0,0,0,135,582,852,684
228,0,0,0,0,134,581,852,685
232,0,0,0,0,135,580,847,685
227,0,0,0,0,136,580,852,682
228,0,0,0,0,136,578,852,685
227,0,0,0,0,135,577,853,685
227,0,0,0,0,135,577,853,682
224,0,0,0,0,133,579,856,684
222,0,0,0,0,134,580,858,682
222,0,0,0,0,136,579,857,680
222,0,0,0,0,135,579,857,681
224,0,0,0,0,134,579,855,681
226,0,0,0,0,132,577,853,681
226,0,0,0,0,135,577,854,679
226,0,0,0,0,133,576,853,680
222,0,0,0,0,130,577,857,681
222,0,0,0,0,129,577,857,682
220,0,0,0,0,129,578,860,683
220,0,0,0,0,124,581,860,685
217,0,0,0,0,125,583,863,682
216,0,0,0,0,124,586,864,682
216,0,0,0,0,124,586,863,685
219,0,0,0,0,125,589,860,682
217,0,0,0,0,120,589,862,684
217,0,0,0,0,119,590,862,683
217,0,0,0,0,115,592,863,684
217,0,0,0,0,115,594,862,684
216,0,0,0,0,114,592,863,684
216,0,0,0,0,115,590,863,683
216,0,0,0,0,116,590,864,683
216,0,0,0,0,115,591,863,684
216,0,0,0,0,112,594,863,684
214,0,0,0,0,112,592,865,684
214,0,0,0,0,110,594,865,687
215,0,0,0,0,110,593,864,686
215,0,0,0,0,109,595,865,688
214,0,0,0,0,107,595,865,688
215,0,0,0,0,106,595,864,688
216,0,0,0,0,105,594,863,689
216,0,0,0,0,102,595,863,690
215,0,0,0,0,102,594,865,692
216,0,0,0,0,102,594,863,690
216,0,0,1,0,101,595,863,690
215,0,0,1,0,98,594,865,690
217,0,0,1,0,97,595,863,691
216,0,0,1,0,98,595,864,691
215,0,0,1,0,94,596,865,692
216,0,0,1,0,424,594,864,692
217,0,0,1,0,94,596,863,692
218,0,0,1,0,95,595,862,693
218,0,0,1,0,94,595,862,693
217,0,0,1,0,92,593,863,692
217,0,0,1,0,92,593,863,692
217,0,0,1,0,141,591,863,692
216,0,0,1,0,139,591,864,693
217,0,0,1,0,135,591,863,693
217,0,0,1,0,131,590,863,692
218,0,0,1,0,129,589,862,694
218,0,0,1,0,128,592,862,694
218,0,0,1,0,124,594,861,693
218,0,0,1,0,121,595,862,696
219,0,0,1,1,122,597,860,695
220,0,0,1,1,118,598,859,696
217,0,0,1,1,115,598,862,702
214,0,0,1,1,114,599,865,704
212,0,0,1,1,110,600,868,707
213,0,0,1,1,107,601,867,709
211,0,0,1,1,98,606,868,714
209,0,0,1,1,96,608,871,719
206,0,0,1,1,398,608,873,728
201,0,0,1,1,392,609,879,731
196,0,0,1,1,390,611,884,731
193,0,0,1,1,384,611,887,743
191,0,0,1,1,381,615,889,750
188,0,0,1,1,379,612,892,756
193,0,0,1,1,378,610,886,759
187,0,0,1,1,102,610,893,766
184,0,0,1,1,112,611,896,778
182,0,0,1,1,127,615,897,788
181,0,0,1,1,139,622,899,793
182,0,0,1,1,179,684,897,798
186,0,0,1,1,191,697,893,802
184,0,0,1,1,97,693,895,807
185,0,0,1,1,111,710,895,818
186,0,0,1,1,119,723,894,828
185,0,0,1,1,128,732,894,842
187,0,0,1,1,256,731,893,848
187,0,0,1,1,153,736,893,862
182,1,0,1,1,163,735,897,882
187,0,0,1,1,171,744,892,891
192,0,0,1,1,234,752,887,905
192,0,0,1,1,231,759,887,915
193,0,0,1,1,220,776,886,919
182,6,0,1,1,202,811,897,931
185,5,0,1,1,189,831,894,933
191,0,0,1,1,181,833,889,944
192,0,0,1,1,168,847,888,955
202,0,0,1,1,161,862,878,976
204,0,0,1,1,159,860,875,989
217,0,0,1,1,146,856,862,1027
198,0,0,1,1,139,857,882,1046
194,0,0,1,1,130,882,885,1050
197,0,0,1,1,127,882,882,1062
193,0,0,1,1,121,888,887,1079
186,7,0,1,1,145,922,894,1081
194,0,0,1,1,138,926,885,1091
195,0,0,1,1,146,939,885,1098
195,0,0,1,1,195,952,885,1105
191,4,0,1,1,186,972,889,1119
189,6,0,1,1,168,1001,891,1126
194,1,0,1,1,144,1027,885,1143
197,0,0,1,1,128,1046,883,1163
198,0,0,0,1,104,1064,881,1169
197,0,0,0,1,289,1067,882,1192
193,0,0,0,1,100,1070,886,1199
197,0,0,0,1,114,1074,882,1218
192,0,0,0,1,123,1084,888,1245
191,0,0,0,1,134,1095,889,1257
191,0,0,0,1,113,1091,888,1284
191,0,0,0,1,118,1104,889,1290
192,0,0,0,1,124,1126,887,1294
190,0,0,0,1,132,1135,890,1308
193,0,0,0,1,141,1154,886,1316
182,8,0,0,1,161,1187,897,1319
192,0,0,0,1,167,1201,888,1323
408,0,2,0,1,667,780,672,812
408,0,2,0,1,667,780,672,812
408,0,2,0,1,667,780,672,812
405,0,2,0,1,188,785,674,812
402,0,2,0,1,193,779,678,809
404,0,2,0,1,153,783,675,810
404,0,2,0,1,192,781,676,807
403,0,2,0,1,204,782,677,805
404,0,2,0,1,153,781,675,805
404,0,2,0,1,154,779,676,806
404,0,2,0,1,212,780,675,803
406,1,2,0,1,215,776,673,803
406,2,2,0,1,218,774,673,798
292,13,3,0,1,160,373,788,469
282,10,3,0,1,155,356,797,478
285,8,3,0,1,153,362,795,472
284,0,3,0,1,132,338,796,460
295,0,3,0,1,149,382,784,456
287,0,3,0,1,137,369,793,446
283,0,3,0,1,975,353,796,437
277,0,3,0,1,495,337,803,430
273,0,3,0,1,1013,324,807,419
267,0,3,0,1,1013,300,813,411
258,0,3,0,1,550,300,822,390
247,0,3,0,1,575,274,833,373
251,0,3,0,1,597,257,829,349
247,0,3,0,1,1127,250,833,343
245,0,3,0,1,1160,222,835,320
207,0,3,0,1,1185,201,872,306
239,0,3,0,1,667,196,841,298
239,0,3,0,1,667,196,841,298
239,0,3,0,1,667,196,841,298
239,0,3,0,1,667,196,841,298
186,0,3,0,1,1241,163,893,310
186,0,3,0,1,1241,163,893,310
186,0,3,0,1,1241,163,893,310
186,0,3,0,1,1241,163,893,310
186,0,3,0,1,1241,163,893,310
186,0,3,0,1,1241,163,893,310
186,0,3,0,1,1241,163,893,310
39,57,0,1,0,1235,160,1041,282
39,64,0,1,0,1235,160,1041,282
40,33,0,1,0,1235,159,1040,285
42,0,0,1,0,1231,164,1038,287
45,0,0,1,0,1229,165,1035,290
47,0,0,1,0,1223,174,1033,290
47,124,0,1,0,1217,180,1033,291
48,0,0,1,0,1214,183,1032,291
49,19,0,1,0,1211,187,1031,291
50,18,0,1,0,1209,191,1029,296
51,13,0,1,0,1207,196,1029,297
51,25,0,1,0,1197,210,1029,303
53,18,0,1,0,1195,209,1027,302
50,31,0,1,0,1186,219,1030,309
51,62,0,1,0,1187,220,1029,306
52,55,0,1,0,1188,220,1028,307
60,69,0,1,0,1188,225,1019,306
64,64,0,1,0,1175,228,1015,314
62,84,0,1,0,1172,230,1018,319
53,51,0,1,0,1172,225,1026,321
54,85,0,1,0,1167,225,1025,330
53,67,0,1,0,1165,226,1026,337
56,87,0,1,0,1166,227,1024,340
56,81,0,1,0,1165,229,1024,343
56,42,0,1,0,1161,234,1024,345
53,62,0,1,0,1160,231,1027,348
53,44,0,1,0,1158,231,1027,351
53,39,0,1,0,1157,230,1027,349
53,28,0,1,0,1157,230,1027,352
54,36,0,1,0,1155,231,1026,351
55,84,0,1,0,1151,230,1024,352
56,68,0,1,0,1145,234,1023,354
56,68,0,1,0,1144,236,1023,355
55,50,0,1,0,1143,242,1024,356
57,52,0,1,0,1138,247,1022,358
56,8,0,1,0,1131,252,1023,360
58,7,0,1,0,1127,255,1021,363
58,62,0,1,0,1122,260,1021,365
59,7,0,1,0,1118,267,1020,368
58,0,0,1,0,1107,282,1021,369
60,0,0,1,0,1103,285,1020,375
60,0,0,1,0,1099,290,1020,376
61,0,0,1,0,1094,292,1019,379
62,0,0,1,0,1089,296,1018,382
64,1,0,1,0,1087,303,1015,381
64,0,0,1,0,1083,304,1015,385
63,2,0,1,0,1081,306,1016,389
64,0,0,1,0,1079,307,1015,388
64,0,0,1,0,1074,308,1015,391
61,5,0,1,0,1060,311,1018,392
62,0,0,1,0,1067,312,1017,395
62,0,0,1,0,1060,313,1017,397
62,0,0,1,0,1055,313,1017,399
62,0,0,1,0,1053,315,1017,402
63,11,0,1,0,1058,316,1017,403
63,2,0,1,0,1055,316,1017,405
62,9,0,1,0,1051,317,1018,409
63,0,0,1,0,1051,318,1017,410
64,0,0,1,0,1048,320,1016,413
64,8,0,1,0,1046,321,1016,414
66,12,0,1,0,1042,325,1014,415
68,5,0,1,0,1038,328,1011,418
66,6,0,1,0,1036,327,1014,420
68,3,0,1,0,1036,331,1011,418
66,0,0,1,0,1031,333,1014,422
67,5,0,1,0,1030,334,1013,421
67,9,0,1,0,1026,336,1013,422
68,12,0,1,0,1023,335,1012,422
70,15,0,1,0,1021,336,1010,423
71,20,0,1,0,1020,336,1008,426
71,20,0,1,0,1013,339,1008,428
71,22,0,1,0,1011,342,1008,429
71,7,0,1,0,1005,347,1008,431
72,13,0,1,0,1005,347,1007,431
72,6,0,1,0,1003,347,1007,434
71,1,0,1,0,1000,349,1008,435
73,3,0,1,0,997,350,1006,436
73,3,0,1,0,996,353,1007,436
72,1,0,1,0,992,354,1008,440
74,12,0,1,0,991,358,1005,436
74,18,0,1,0,990,357,1005,435
76,7,0,1,0,987,361,1004,438
76,25,0,1,0,984,360,1004,440
70,40,0,1,0,979,360,1009,444
75,22,0,1,0,978,361,1005,442
70,1,0,1,0,972,363,1009,447
70,2,0,1,0,970,363,1009,449
70,7,0,1,0,966,366,1009,449
70,17,0,1,0,963,367,1009,451
68,64,0,1,0,957,370,1012,454
66,60,0,1,0,953,371,1013,458
67,14,0,1,0,951,373,1013,454
67,58,0,1,0,946,374,1012,460
71,37,0,1,0,952,376,1008,456
73,66,0,1,0,955,379,1007,454
73,40,0,1,0,940,380,1006,454
74,64,0,1,0,933,382,1005,454
81,63,0,1,0,913,385,998,457
79,64,0,1,0,898,387,1001,456
80,17,0,1,0,887,388,999,457
80,52,0,1,0,867,392,1000,469
77,0,0,1,0,836,394,1003,475
77,0,0,1,0,836,394,1003,475
77,0,0,1,0,836,394,1003,475
77,0,0,1,0,836,394,1003,475
77,0,0,1,0,836,394,1003,475
77,0,0,1,0,836,394,1003,475
77,0,0,1,0,836,394,1003,475
90,146,0,1,0,1318,88,990,205
90,154,0,1,0,1318,88,990,205
92,130,0,1,0,1320,88,988,199
86,6,0,1,0,1321,88,993,196
89,1,0,1,0,1322,88,991,193
87,0,0,1,0,1323,86,992,190
87,229,0,1,0,1323,86,993,188
86,11,0,1,0,1322,82,994,186
79,132,0,1,0,1325,81,1000,183
81,138,0,1,0,1329,78,998,180
81,128,0,1,0,1333,75,998,177
84,149,0,1,0,1334,71,996,179
85,148,0,1,0,1333,69,995,177
86,174,0,1,0,1339,62,994,170
89,205,0,1,0,1343,58,991,168
86,197,0,1,0,1346,57,994,165
86,215,0,1,0,1352,52,993,162
89,219,0,1,0,1345,55,991,159
87,244,0,1,0,1347,50,992,160
83,216,0,1,0,1353,37,997,159
92,262,0,1,0,1364,18,988,156
90,255,0,1,0,1373,9,990,152
87,277,0,1,0,1375,10,992,150
89,280,0,1,0,1375,19,991,145
87,244,0,1,0,1370,30,992,144
90,270,0,1,0,1369,30,990,144
85,252,0,1,0,1379,6,994,143
86,242,0,1,0,1380,6,993,141
86,237,0,1,0,1379,8,993,140
89,251,0,1,0,1366,39,991,138
85,302,0,1,0,1363,37,995,136
87,291,0,1,0,1361,36,992,132
87,295,0,1,0,1366,33,992,129
89,289,0,1,0,1378,23,991,118
91,288,0,1,0,1380,12,989,120
91,214,0,1,0,1380,7,988,118
90,235,0,1,0,1383,4,990,114
89,317,0,1,0,1385,1,990,112
90,252,0,1,0,1388,0,990,108
87,237,0,1,0,1387,0,992,105
90,217,0,1,0,1389,0,990,102
90,184,0,1,0,1389,1,990,100
91,141,0,1,0,1388,0,989,96
87,72,0,1,0,1386,0,992,95
87,49,0,1,0,1391,0,992,92
86,51,0,1,0,1390,0,993,90
118,74,0,1,0,1394,0,961,89
122,75,0,1,0,1395,0,958,86
184,133,0,1,0,1398,0,896,84
163,286,0,1,0,1387,0,916,80
161,112,0,1,0,1397,0,918,77
187,210,0,1,0,1396,0,892,72
127,91,0,1,0,1388,0,952,69
104,86,0,1,0,1388,0,976,63
119,267,0,1,0,1398,0,961,60
178,254,0,1,0,1403,0,902,59
167,295,0,1,0,1402,0,912,57
30,228,0,1,0,1392,0,1049,56
24,228,0,1,0,1389,0,1055,57
25,288,0,1,0,1386,0,1055,62
26,285,0,1,0,1381,0,1053,63
24,271,0,1,0,1377,0,1056,66
26,283,0,1,0,1375,0,1054,66
27,228,0,1,0,1376,0,1052,74
29,209,0,1,0,1370,0,1051,78
30,267,0,1,0,1368,0,1050,81
26,265,0,1,0,1364,0,1054,84
26,269,0,1,0,1359,0,1054,89
26,251,0,1,0,1354,0,1054,95
27,248,0,1,0,1351,0,1053,101
32,249,0,1,0,1347,0,1047,104
32,253,0,1,0,1344,0,1047,105
24,244,0,1,0,1340,0,1056,108
28,241,0,1,0,1338,1,1051,111
28,239,0,1,0,1334,2,1051,116
26,231,0,1,0,1328,1,1054,123
24,233,0,1,0,1322,2,1055,131
25,235,0,1,0,1317,3,1054,141
27,210,0,1,0,1310,1,1052,153
28,199,0,1,0,1305,0,1052,161
28,163,0,1,0,1302,1,1051,165
29,157,0,1,0,1301,1,1050,166
30,159,0,1,0,1298,2,1049,166
28,286,0,1,0,1293,2,1051,170
29,159,0,1,0,1291,1,1051,172
29,170,0,1,0,1289,0,1050,173
31,150,0,1,0,1286,2,1049,175
31,159,0,1,0,1281,4,1049,175
30,175,0,1,0,1277,12,1050,174
26,322,0,1,0,1268,24,1053,174
29,327,0,1,0,1265,25,1050,177
28,239,0,1,0,1261,26,1051,182
30,314,0,1,0,1253,36,1049,185
29,287,0,1,0,1254,39,1050,188
30,321,0,1,0,1255,42,1049,189
30,297,0,1,0,1239,47,1049,190
31,306,0,1,0,1225,57,1049,192
31,316,0,1,0,1203,63,1048,194
31,308,0,1,0,1181,72,1048,203
32,254,0,1,0,1162,80,1048,211
32,285,0,1,0,1142,89,1047,217
19,195,0,1,0,1111,91,1061,226
33,219,0,1,0,1089,99,1046,225
31,231,0,1,0,1068,103,1049,232
33,222,0,1,0,1045,108,1046,243
33,208,0,1,0,1032,113,1046,245
33,0,0,1,0,1021,114,1046,246
33,6,0,1,0,1173,115,1046,243
35,0,0,1,0,1163,115,1045,250
35,225,0,1,0,1160,115,1045,256
36,205,0,1,0,1160,114,1044,258
35,24,0,1,0,1155,115,1045,262
35,201,0,1,0,1149,114,1045,264
36,232,0,1,0,1150,115,1044,267
35,1,0,1,0,1144,115,1044,268
35,200,0,1,0,1144,117,1045,266
37,240,0,1,0,1144,120,1042,267
36,197,0,1,0,1139,121,1044,268
37,196,0,1,0,976,125,1043,272
37,194,0,1,0,1126,130,1043,274
39,226,0,1,0,1120,135,1041,279
43,193,0,1,0,1113,148,1037,279
40,196,0,1,0,1111,153,1039,279
39,189,0,1,0,1106,161,1040,280
38,187,0,1,0,1101,168,1041,282
40,185,0,1,0,1093,176,1039,281
44,138,0,1,0,1090,184,1036,283
43,177,0,1,0,1086,191,1037,286
40,178,0,1,0,1077,196,1039,288
38,188,0,1,0,1072,201,1042,290
43,178,0,1,0,1065,204,1037,291
43,176,0,1,0,1062,205,1037,295
43,171,0,1,0,1061,205,1037,297
47,190,0,1,0,1057,208,1033,300
47,169,0,1,0,1053,211,1032,301
47,205,0,1,0,1043,209,1032,305
47,157,0,1,0,1038,209,1032,314
61,190,0,1,0,1035,209,1019,322
49,140,0,1,0,1033,209,1031,326
49,128,0,1,0,1025,211,1031,336
47,125,0,1,0,715,212,1032,338
58,146,0,1,0,1024,211,1021,337
57,294,0,1,0,1023,211,1023,337
56,178,0,1,0,1022,213,1024,335
57,129,0,1,0,1023,212,1023,337
59,17,0,1,0,1017,211,1020,339
59,173,0,1,0,1014,210,1021,341
51,171,0,1,0,1013,210,1028,341
52,13,0,1,0,1010,212,1027,341
53,68,0,1,0,1005,216,1027,342
54,158,0,1,0,1005,216,1025,344
54,202,0,1,0,999,222,1025,345
54,209,0,1,0,994,224,1025,350
56,294,0,1,0,988,232,1024,355
56,318,0,1,0,983,236,1024,361
54,286,0,1,0,978,241,1025,360
53,294,0,1,0,972,250,1026,361
53,817,0,1,0,968,254,1026,364
52,258,0,1,0,964,258,1028,366
51,808,0,1,0,957,265,1029,370
58,809,0,1,0,952,271,1022,367
57,242,0,1,0,947,276,1023,371
57,239,0,1,0,945,281,1022,371
56,133,0,1,0,941,285,1023,374
57,106,0,1,0,938,285,1023,378
57,141,0,1,0,935,285,1022,381
58,887,0,1,0,933,286,1021,382
57,215,0,1,0,931,286,1022,385
55,134,0,1,0,932,287,1024,380
54,118,0,1,0,930,288,1026,384
56,144,3,1,0,931,284,1023,383
53,137,3,1,0,933,278,1026,386
53,135,3,1,0,935,274,1026,385
53,783,3,1,0,936,272,1026,383
53,782,3,1,0,936,271,1026,385
53,148,3,1,0,935,270,1026,384
53,158,3,1,0,935,269,1026,386
53,185,3,1,0,934,268,1027,384
52,155,3,1,0,934,270,1027,384
53,161,3,1,0,933,272,1026,385
53,223,3,1,0,931,276,1026,384
55,226,3,1,0,931,279,1024,381
55,789,3,1,0,932,280,1024,378
54,235,3,1,0,931,281,1025,377
56,882,3,1,0,929,287,1023,377
55,905,3,1,0,930,287,1024,374
55,189,3,1,0,931,286,1025,373
53,188,3,1,0,932,286,1027,373
52,194,3,1,0,932,286,1028,370
54,176,3,1,0,931,287,1026,371
65,185,3,1,0,933,284,1014,373
60,242,3,1,0,937,278,1019,368
59,235,3,1,0,941,274,1020,366
59,184,3,1,0,939,274,1020,366
58,182,3,1,0,942,270,1021,366
57,614,3,1,0,945,265,1022,361
54,187,3,1,0,946,263,1026,359
51,187,3,1,0,946,264,1029,359
53,36,3,1,0,947,261,1027,357
52,35,3,1,0,950,258,1028,354
53,36,3,1,0,952,256,1027,351
55,38,3,1,0,959,250,1024,343
51,30,3,1,0,957,248,1029,347
45,170,3,1,0,950,245,1035,362
41,188,3,1,0,959,240,1039,350
44,207,3,1,0,963,235,1036,343
45,198,3,1,0,974,227,1035,331
38,157,3,1,0,962,220,1042,360
50,187,3,1,0,967,219,1030,351
50,187,3,1,0,967,219,1030,351
28,193,3,1,0,968,218,1051,341
13,181,3,1,0,969,216,1066,342
20,176,3,1,0,970,216,1060,338
10,189,3,1,0,975,213,1070,330
11,175,3,1,0,981,210,1069,324
8,184,3,1,0,986,201,1071,318
9,187,3,1,0,987,199,1071,321
166,152,3,1,0,964,271,914,324
167,182,3,1,0,959,275,912,323
157,173,3,1,0,974,251,923,316
141,235,3,1,0,976,246,939,315
141,235,3,1,0,976,246,939,315
141,235,3,1,0,976,246,939,315
141,235,3,1,0,976,246,939,315
141,235,3,1,0,976,246,939,315
141,235,3,1,0,976,246,939,315
141,235,3,1,0,976,246,939,315
221,7,0,1,0,973,1798,859,1918
219,8,0,1,0,971,1795,861,1920
215,13,0,1,0,970,1795,864,1918
64,0,0,1,0,949,1795,1015,1918
60,1,0,1,0,948,1790,1020,1919
59,0,0,1,0,944,1783,1021,1918
62,0,0,1,0,939,1771,1018,1918
61,22,0,1,0,931,1752,1019,1920
59,142,0,1,0,926,1745,1020,1919
59,1,0,1,0,923,1737,1020,1920
60,143,0,1,0,915,1723,1020,1918
53,7,0,1,0,908,1707,1027,1919
55,5,0,1,0,903,1699,1025,1919
54,4,0,1,0,898,1689,1025,1919
53,5,0,1,0,889,1668,1026,1918
54,4,0,1,0,884,1661,1025,1919
53,115,0,1,0,880,1653,1026,1917
56,26,0,1,0,874,1642,1024,1918
54,7,0,1,0,868,1631,1025,1920
54,9,0,1,0,855,1608,1026,1918
54,6,0,1,0,850,1597,1025,1917
54,7,0,1,0,838,1584,1025,1908
56,12,0,1,0,834,1570,1024,1910
54,6,0,1,0,814,1545,1026,1901
54,6,0,1,0,814,1545,1026,1901
54,6,0,1,0,806,1531,1025,1891
54,6,0,1,0,806,1531,1025,1891
54,6,0,1,0,806,1531,1025,1891
54,6,0,1,0,806,1531,1025,1891
54,6,0,1,0,806,1531,1025,1891
54,6,0,1,0,806,1531,1025,1891
54,6,0,1,0,806,1531,1025,1891
59,7,0,1,0,527,1305,1020,1579
59,7,0,1,0,527,1305,1020,1579
59,7,0,1,0,527,1305,1020,1579
37,46,0,1,0,474,1268,1042,1512
54,42,0,1,0,447,1206,1025,1494
55,29,0,1,0,433,1194,1025,1480
15,71,0,1,0,421,1200,1065,1468
14,73,0,1,0,411,1195,1065,1449
12,87,0,1,0,401,1189,1068,1432
12,198,0,1,0,398,1191,1068,1423
11,135,0,1,0,386,1174,1069,1417
12,114,0,1,0,375,1161,1067,1404
16,99,0,1,0,366,1143,1064,1392
16,109,0,1,0,359,1140,1064,1380
16,196,0,1,0,343,1123,1064,1359
19,193,0,1,0,327,1116,1061,1322
12,180,0,1,0,306,1109,1067,1289
12,162,0,1,0,293,1090,1067,1284
11,157,0,1,0,281,1074,1068,1272
18,125,0,1,0,271,1030,1062,1240
23,95,0,1,0,267,1025,1057,1242
25,100,0,1,0,266,1024,1055,1234
19,92,0,1,0,272,995,1061,1245
20,41,0,1,0,276,987,1060,1210
19,2,0,1,0,300,985,1061,1168
12,11,0,1,0,300,979,1067,1165
16,6,0,1,0,309,965,1064,1154
8,21,0,1,0,203,967,1072,1140
7,19,0,1,0,308,963,1073,1139
4,75,0,1,0,309,962,1075,1133
9,22,0,1,0,320,953,1071,1121
9,24,0,1,0,333,938,1070,1112
8,51,0,1,0,341,931,1072,1102
12,12,0,1,0,350,922,1068,1090
6,18,0,1,0,350,914,1074,1081
5,13,0,1,0,358,908,1074,1070
8,12,0,1,0,368,893,1072,1064
5,1,0,1,0,374,885,1074,1047
4,0,0,1,0,374,877,1076,1050
5,0,0,1,0,379,870,1075,1040
2,0,0,1,0,393,857,1077,1019
4,0,0,1,0,406,850,1075,1003
3,0,0,1,0,411,846,1077,989
2,0,0,1,0,418,828,1078,978
0,2,0,1,0,417,819,1080,971
1,1,0,1,0,423,817,1078,958
4,47,0,1,0,433,804,1075,948
4,0,0,1,0,442,794,1075,941
5,0,0,1,0,442,787,1075,940
5,0,0,1,0,145,788,1074,934
5,0,0,1,0,455,780,1075,927
3,1,0,1,0,463,770,1076,917
3,1,0,1,0,465,767,1076,914
2,0,0,1,0,479,759,1078,891
2,0,0,1,0,481,751,1077,889
3,0,0,1,0,484,747,1077,884
3,0,0,1,0,492,736,1077,874
2,0,0,1,0,496,727,1077,868
0,2,0,1,0,499,718,1079,865
0,2,0,1,0,503,714,1079,861
0,2,0,1,0,503,712,1080,858
0,4,0,1,0,503,711,1080,857
2,4,0,1,0,507,711,1077,849
2,4,0,1,0,509,709,1077,843
3,3,0,1,0,513,701,1076,839
4,5,0,1,0,519,692,1076,830
3,415,0,1,0,521,690,1076,825
6,1,0,1,0,527,688,1074,816
6,3,0,1,0,536,680,1073,809
5,0,0,1,0,538,673,1076,801
8,0,0,1,0,538,667,1073,805
6,0,0,1,0,544,657,1074,810
4,2,0,1,0,545,657,1072,809
3,0,0,1,0,556,652,1074,801
7,0,0,1,0,567,653,1075,796
7,0,0,1,0,569,650,1075,785
6,0,3,1,0,569,644,1076,779
4,0,3,1,0,569,636,1072,762
3,0,3,1,0,573,634,1072,760
2,459,3,1,0,576,634,1074,760
4,464,3,1,0,580,633,1075,761
5,0,3,1,0,583,630,1076,756
7,2,3,1,0,586,625,1077,754
3,0,3,1,0,584,623,1075,745
2,0,3,1,0,587,618,1074,744
2,0,3,1,0,588,618,1073,737
4,3,3,1,0,592,618,1076,737
4,6,3,1,0,593,614,1077,733
4,483,3,1,0,596,612,1078,732
3,23,3,1,0,599,607,1075,729
4,578,3,1,0,599,607,1076,727
4,601,3,1,0,603,606,1076,725
5,8,3,1,0,604,601,1076,720
8,8,3,1,0,611,599,1076,721
11,0,3,1,0,615,596,1075,718
13,0,3,1,0,623,593,1075,719
17,1,3,1,0,628,590,1071,707
19,15,3,1,0,632,585,1068,707
11,18,3,1,0,635,575,1066,701
8,1,3,1,0,638,566,1062,698
9,0,3,1,0,642,565,1060,694
9,302,3,1,0,647,562,1069,690
11,1,3,1,0,648,555,1072,687
12,1,3,1,0,653,553,1070,682
16,0,3,1,0,656,551,1071,674
17,0,3,1,0,656,550,1068,672
21,0,3,1,0,664,546,1067,665
22,0,3,1,0,666,540,1064,662
20,1,3,1,0,672,539,1063,662
20,8,3,1,0,674,533,1058,653
22,4,3,1,0,681,533,1057,650
21,6,3,1,0,681,521,1059,643
20,4,3,1,0,684,521,1059,641
21,3,3,1,0,687,511,1057,639
21,3,3,1,0,690,509,1058,638
23,1,3,1,0,691,508,1059,630
21,3,3,1,0,692,508,1058,624
21,3,3,1,0,697,506,1058,620
24,0,3,1,0,698,504,1056,618
24,0,3,1,0,703,502,1058,615
30,0,3,1,0,706,499,1059,610
26,0,3,1,0,708,495,1056,609
29,0,3,1,0,710,491,1056,605
33,0,3,1,0,715,490,1049,603
25,0,3,1,0,718,485,1053,602
27,0,3,1,0,722,484,1051,600
27,0,3,1,0,724,482,1047,595
31,0,3,1,0,729,475,1054,589
39,0,3,1,0,733,470,1052,584
36,0,3,1,0,735,467,1052,583
39,0,3,1,0,740,461,1049,578
39,0,3,1,0,743,454,1041,577
40,0,3,1,0,743,451,1043,574
44,0,3,1,0,747,447,1041,569
43,0,3,1,0,749,443,1040,565
42,0,3,1,0,750,441,1039,567
41,0,3,1,0,750,436,1035,561
42,0,3,1,0,752,434,1037,560
40,0,3,1,0,752,433,1038,556
38,0,3,1,0,752,432,1039,554
35,0,3,1,0,755,433,1038,553
31,0,3,1,0,756,434,1039,551
29,0,3,1,0,759,434,1041,548
220,0,1,0,1,153,1594,860,1707
220,0,1,0,1,475,1595,859,1706
220,0,1,0,1,471,1595,859,1706
218,0,1,0,1,470,1593,862,1709
217,0,1,0,1,469,1594,863,1710
216,0,1,0,1,466,1593,864,1707
215,0,1,0,1,459,1593,865,1710
215,2,1,0,1,464,1593,864,1710
214,3,1,0,1,460,1590,865,1709
212,1,1,0,1,455,1591,868,1711
211,5,1,0,1,450,1592,869,1706
211,3,1,0,1,451,1587,868,1709
211,4,1,0,1,449,1586,869,1708
211,3,1,0,1,443,1585,868,1710
211,1,1,0,1,444,1584,868,1713
209,0,1,0,1,440,1583,871,1711
209,0,1,0,1,433,1579,871,1708
209,1,1,0,1,434,1579,870,1705
209,0,1,0,1,431,1576,870,1702
208,0,1,0,1,427,1576,871,1701
206,0,1,0,1,424,1574,873,1700
207,0,1,0,1,418,1573,872,1693
208,0,1,0,1,408,1567,871,1684
206,1,1,0,1,401,1569,874,1665
203,2,1,0,1,401,1568,877,1666
205,6,1,0,1,393,1565,874,1657
202,6,1,0,1,395,1564,877,1657
202,3,1,0,1,387,1557,877,1647
202,7,2,0,1,384,1554,877,1641
205,9,2,0,1,377,1552,875,1636
202,6,2,0,1,376,1549,877,1630
200,9,2,0,1,367,1544,879,1630
198,9,2,0,1,362,1545,882,1629
197,8,2,0,1,353,1539,883,1629
199,6,2,0,1,348,1535,880,1627
198,11,2,0,1,347,1530,882,1629
197,13,2,0,1,345,1527,883,1629
198,7,2,0,1,345,1526,881,1631
198,7,2,0,1,342,1527,881,1631
198,0,2,0,1,337,1521,881,1631
197,6,2,0,1,335,1515,883,1632
196,3,2,0,1,330,1508,883,1634
195,2,2,0,1,325,1503,884,1632
194,0,2,0,1,322,1503,886,1632
192,0,2,0,1,321,1501,888,1632
191,0,2,0,1,317,1499,889,1628
187,0,2,0,1,318,1497,893,1629
184,0,2,0,1,313,1495,895,1626
184,0,2,0,1,308,1493,896,1622
185,1,2,0,1,301,1492,894,1615
185,0,2,0,1,300,1489,895,1608
185,0,2,0,1,294,1487,895,1601
184,0,2,0,1,279,1483,895,1582
184,0,2,0,1,280,1483,896,1588
184,0,2,0,1,266,1480,896,1576
184,0,2,0,1,262,1476,896,1575
180,0,2,0,1,256,1475,899,1571
180,0,2,0,1,253,1473,899,1562
179,0,2,0,1,247,1469,900,1553
180,0,2,0,1,249,1465,899,1549
177,0,2,0,1,244,1465,903,1540
175,0,2,0,1,242,1466,904,1543
181,0,2,0,1,240,1465,898,1542
180,0,2,0,1,238,1458,899,1541
179,0,2,0,1,233,1454,901,1541
179,0,2,0,1,227,1451,901,1540
176,0,2,0,1,229,1447,903,1539
177,0,2,0,1,229,1444,902,1540
176,0,2,0,1,219,1428,904,1542
175,0,2,0,1,214,1422,905,1542
173,0,2,0,1,213,1414,906,1542
174,0,2,0,1,217,1410,906,1542
175,0,2,0,1,223,1406,905,1541
175,0,2,0,1,225,1406,905,1541
174,0,2,0,1,228,1402,906,1539
173,0,2,0,1,227,1399,907,1539
173,0,2,0,1,227,1393,906,1539
171,0,2,0,1,231,1391,908,1535
171,0,2,0,1,233,1386,909,1533
171,0,2,0,1,234,1384,909,1531
170,0,3,0,1,237,1385,910,1529
167,0,3,0,1,244,1383,913,1524
168,0,3,0,1,174,1378,911,1518
171,0,3,0,1,254,1379,908,1507
172,0,3,0,1,257,1381,908,1503
171,0,3,0,1,259,1381,909,1498
172,0,3,0,1,265,1375,907,1489
172,0,3,0,1,279,1372,907,1479
173,0,3,0,1,282,1373,907,1469
173,0,3,0,1,289,1369,907,1461
170,0,3,0,1,295,1366,909,1453
172,0,3,0,1,302,1365,908,1445
168,0,3,0,1,309,1357,912,1441
167,0,3,0,1,309,1358,912,1442
168,0,3,0,1,314,1353,911,1442
167,0,3,0,1,316,1346,913,1442
168,0,3,0,1,317,1343,911,1445
171,0,3,0,1,322,1337,909,1444
168,0,3,0,1,327,1329,912,1446
173,0,3,0,1,336,1327,907,1444
175,0,3,0,1,335,1321,904,1443
175,0,3,0,1,337,1315,905,1441
171,0,3,0,1,341,1314,909,1440
163,0,3,0,1,344,1310,916,1442
164,0,3,0,1,349,1305,916,1442
162,0,3,0,1,351,1303,918,1440
161,0,3,0,1,356,1299,918,1437
162,0,3,0,1,360,1294,918,1432
166,0,3,0,1,365,1294,913,1426
162,0,3,0,1,375,1293,918,1421
163,0,3,0,1,380,1291,917,1416
160,0,3,0,1,389,1284,920,1404
166,0,3,0,1,399,1283,913,1388
166,0,3,0,1,401,1284,913,1383
160,0,3,0,1,405,1279,919,1384
159,0,3,0,1,407,1276,921,1381
155,0,3,0,1,413,1274,925,1375
158,0,3,0,1,419,1272,922,1364
159,0,3,0,1,426,1268,921,1358
162,0,3,0,1,432,1265,917,1349
160,0,3,0,1,435,1262,919,1345
166,0,3,0,1,439,1260,913,1343
160,0,3,0,1,442,1259,919,1343
161,0,3,0,1,448,1253,918,1343
162,0,3,0,1,450,1248,917,1344
161,0,3,0,1,455,1242,918,1341
159,0,3,0,1,459,1235,921,1340
161,0,3,0,1,459,1232,918,1343
158,0,2,0,1,463,1221,921,1346
160,0,2,0,1,466,1215,919,1341
158,0,2,0,1,471,1207,921,1344
158,0,2,0,1,477,1198,921,1341
162,0,2,0,1,477,1195,918,1336
161,0,2,0,1,484,1197,918,1331
161,1,2,0,1,483,1200,919,1331
160,0,2,0,1,487,1201,920,1326
160,0,2,0,1,486,1202,920,1324
159,0,2,0,1,489,1199,921,1321
161,0,2,0,1,493,1199,918,1318
160,0,2,0,1,496,1196,920,1310
159,0,2,0,1,497,1196,921,1307
158,0,2,0,1,504,1194,921,1287
161,0,2,0,1,504,1188,918,1287
161,0,2,0,1,517,1182,919,1274
159,0,2,0,1,519,1181,920,1273
159,0,2,0,1,517,1178,921,1274
160,0,2,0,1,518,1177,919,1273
160,0,2,0,1,517,1175,920,1274
165,0,2,0,1,518,1171,914,1282
166,0,2,0,1,516,1167,913,1295
179,0,2,0,1,490,1215,901,1304
186,0,2,0,1,492,1202,894,1310
184,0,2,0,1,485,1215,896,1311
183,0,2,0,1,481,1214,896,1313
182,0,2,0,1,484,1212,897,1314
180,0,2,0,1,474,1213,899,1314
181,0,2,0,1,474,1211,899,1310
181,0,2,0,1,481,1213,899,1311
180,0,2,0,1,470,1215,899,1311
180,0,2,0,1,468,1221,900,1310
178,0,2,0,1,477,1223,901,1310
180,0,2,0,1,482,1223,899,1310
179,0,2,0,1,476,1227,900,1308
179,0,2,0,1,476,1230,900,1311
179,0,2,0,1,471,1231,900,1311
179,0,2,0,1,468,1235,901,1313
178,0,2,0,1,471,1236,902,1311
178,0,2,0,1,472,1238,901,1313
175,0,2,0,1,469,1238,904,1312
173,0,2,0,1,472,1239,906,1311
172,0,2,0,1,471,1240,908,1312
170,0,2,0,1,474,1243,910,1312
170,0,2,0,1,473,1242,910,1314
169,0,2,0,1,476,1244,911,1318
164,0,2,0,1,483,1245,915,1319
162,0,2,0,1,478,1248,918,1326
161,0,2,0,1,480,1247,919,1331
161,0,2,0,1,475,1247,919,1337
163,1,2,0,1,474,1249,917,1342
163,0,2,0,1,466,1250,916,1346
162,0,2,0,1,462,1253,918,1354
166,0,2,0,1,465,1251,913,1353
160,0,2,0,1,463,1252,919,1360
159,0,2,0,1,462,1260,920,1362
157,0,2,0,1,460,1265,922,1364
157,0,2,0,1,470,1265,922,1364
157,0,2,0,1,467,1265,922,1367
155,0,2,0,1,470,1264,924,1366
153,0,2,0,1,472,1265,927,1372
153,0,2,0,1,467,1268,926,1370
154,0,2,0,1,473,1271,926,1367
154,0,2,0,1,464,1271,925,1366
153,0,2,0,1,459,1276,926,1368
152,0,2,0,1,458,1276,928,1371
151,0,2,0,1,456,1277,929,1369
150,0,2,0,1,451,1283,930,1372
151,0,2,0,1,451,1284,929,1379
146,0,2,0,1,448,1290,933,1385
147,0,2,0,1,445,1294,933,1389
141,0,2,0,1,444,1296,938,1391
143,0,2,0,1,442,1295,937,1394
139,0,2,0,1,441,1298,941,1399
137,0,2,0,1,441,1300,943,1399
137,0,2,0,1,440,1305,943,1401
146,0,2,0,1,437,1309,934,1404
137,0,2,0,1,438,1311,943,1413
138,0,2,0,1,433,1310,942,1420
135,0,2,0,1,435,1309,945,1426
133,0,2,0,1,438,1310,946,1435
133,0,2,0,1,428,1306,946,1452
131,0,2,0,1,432,1312,949,1456
127,0,2,0,1,432,1313,952,1462
127,0,2,0,1,426,1319,952,1463
126,0,2,0,1,421,1325,953,1463
123,0,2,0,1,423,1329,956,1467
118,0,2,0,1,424,1326,961,1464
116,0,2,0,1,429,1328,963,1462
113,0,2,0,1,427,1333,967,1462
119,0,2,0,1,430,1330,960,1461
112,0,2,0,1,438,1339,967,1462
106,0,2,0,1,428,1341,974,1469
105,0,2,0,1,422,1347,975,1467
106,0,2,0,1,422,1350,974,1470
118,0,2,0,1,414,1360,961,1471
109,0,2,0,1,412,1362,970,1473
107,0,2,1,0,415,1364,973,1478
108,0,2,1,0,416,1368,971,1482
110,0,2,1,0,420,1364,970,1483
111,0,2,1,0,417,1369,969,1489
111,0,2,1,0,409,1372,968,1494
107,0,2,1,0,404,1377,973,1497
113,0,2,1,0,407,1380,967,1499
104,0,2,1,0,400,1389,976,1506
113,0,3,1,0,392,1390,966,1515
112,0,3,1,0,380,1399,967,1528
112,0,3,1,0,376,1407,967,1536
116,0,3,1,0,373,1412,964,1543
116,0,3,1,0,370,1411,964,1552
116,0,3,1,0,368,1411,964,1554
112,0,3,1,0,365,1417,968,1563
112,0,3,1,0,364,1419,967,1565
117,0,3,1,0,353,1435,963,1581
116,0,3,1,0,351,1441,964,1585
120,0,3,1,0,350,1445,960,1586
120,0,3,1,0,344,1446,959,1590
117,0,3,1,0,349,1447,963,1597
120,0,3,1,0,341,1453,959,1599
121,0,3,1,0,339,1458,958,1604
120,0,3,1,0,331,1462,959,1611
112,0,3,1,0,324,1476,968,1619
119,0,3,1,0,317,1490,961,1624
116,0,3,1,0,316,1486,964,1630
117,0,3,1,0,311,1492,963,1632
117,0,3,1,0,304,1500,963,1653
120,0,3,1,0,298,1505,959,1661
127,0,3,1,0,288,1509,952,1670
162,0,3,1,0,277,1520,917,1667
159,0,3,1,0,268,1528,920,1684
176,0,3,1,0,260,1531,904,1696
148,0,3,1,0,261,1528,931,1699
137,0,3,1,0,262,1535,943,1699
141,0,3,1,0,255,1542,938,1694
134,0,3,1,0,252,1549,946,1699
131,0,3,1,0,245,1568,949,1709
122,0,3,1,0,242,1574,958,1720
117,7,3,1,0,240,1589,963,1726
124,2,3,1,0,237,1590,955,1733
121,0,3,1,0,234,1594,959,1741
118,0,3,1,0,226,1596,961,1755
124,0,3,1,0,217,1602,956,1769
123,0,3,1,0,206,1614,956,1782
123,4,3,1,0,203,1616,957,1790
129,0,3,1,0,201,1623,950,1794
125,0,3,1,0,200,1627,954,1804
126,0,3,1,0,1272,1630,954,1813
143,0,3,1,0,1280,1640,937,1817
126,0,3,1,0,1298,1653,953,1841
127,0,3,1,0,1307,1663,953,1846
124,0,3,1,0,1317,1677,955,1853
123,0,3,1,0,1331,1685,956,1868
121,0,3,1,0,1348,1703,958,1886
121,0,3,1,0,1358,1712,958,1891
137,0,3,1,0,1367,1721,943,1898
125,4,3,1,0,1477,1732,955,1905
121,13,3,1,0,1387,1748,958,1910
128,17,3,1,0,1396,1755,952,1917
133,14,3,1,0,1400,1763,946,1918
141,16,3,1,0,128,1780,938,1917
117,45,3,1,0,178,1793,962,1919
128,33,3,1,0,176,1802,951,1919
133,28,3,1,0,172,1809,947,1920
186,0,3,1,0,153,1819,893,1918
194,0,3,1,0,149,1828,886,1920
214,0,3,1,0,150,1840,865,1918
240,0,3,1,0,149,1850,839,1919
240,0,3,1,0,149,1850,839,1919
277,0,3,1,0,147,1863,803,1919
265,0,3,1,0,152,1859,815,1916
276,0,3,1,0,155,1859,803,1918
298,0,3,1,0,152,1855,781,1918
300,0,3,1,0,153,1858,779,1918
300,0,3,1,0,153,1858,779,1918
301,0,3,1,0,150,1856,778,1918
288,0,3,1,0,146,1858,791,1918
288,0,3,1,0,146,1858,791,1918
288,0,3,1,0,146,1858,791,1918
288,0,3,1,0,146,1858,791,1918
288,0,3,1,0,146,1858,791,1918
288,0,3,1,0,146,1858,791,1918
288,0,3,1,0,146,1858,791,1918
288,0,3,1,0,146,1858,791,1918
284,0,3,1,0,154,1861,795,1917
284,0,3,1,0,149,1861,796,1918
283,0,3,1,0,155,1860,796,1919
283,0,3,1,0,152,1858,796,1918
283,0,3,1,0,156,1860,796,1919
281,0,3,1,0,154,1861,798,1918
276,0,3,1,0,91,1861,803,1918
276,0,3,1,0,159,1861,803,1918
276,0,3,1,0,156,1857,803,1919
278,0,3,1,0,159,1855,802,1918
278,0,3,1,0,161,1856,802,1918
278,0,3,1,0,163,1855,802,1918
278,0,3,1,0,167,1861,802,1918
278,0,3,1,0,168,1857,802,1920
279,0,3,1,0,168,1857,801,1920
278,0,3,1,0,170,1852,802,1918
281,0,3,1,0,175,1854,798,1920
282,0,3,1,0,169,1854,797,1916
285,0,3,1,0,166,1851,795,1916
285,0,3,1,0,172,1852,795,1915
285,0,3,1,0,172,1852,795,1915
285,0,3,1,0,172,1852,795,1915
285,0,3,1,0,172,1852,795,1915
285,0,3,1,0,172,1852,795,1915
285,0,3,1,0,172,1852,795,1915
292,0,3,1,0,174,1849,787,1915
292,0,3,1,0,174,1849,787,1915
292,0,3,1,0,174,1849,787,1915
292,0,3,1,0,174,1849,787,1915
292,0,3,1,0,174,1849,787,1915
292,0,3,1,0,174,1849,787,1915
292,0,3,1,0,174,1849,787,1915
292,0,3,1,0,174,1849,787,1915
289,0,3,1,0,178,1830,791,1902
383,20,3,1,0,108,1772,697,1814
378,10,3,1,0,106,1771,701,1812
378,10,3,1,0,106,1771,701,1812
378,10,3,1,0,106,1771,701,1812
378,10,3,1,0,106,1771,701,1812
378,10,3,1,0,106,1771,701,1812
378,10,3,1,0,106,1771,701,1812
378,10,3,1,0,106,1771,701,1812
378,10,3,1,0,106,1771,701,1812
367,6,3,1,0,103,1751,712,1786
339,0,1,0,1,976,1337,741,1370
339,0,1,0,1,850,1336,741,1371
338,0,1,0,1,1237,1334,742,1370
338,2,1,0,1,968,1332,742,1368
337,1,1,0,1,904,1329,743,1370
334,0,1,0,1,983,1328,746,1366
334,1,1,0,1,1054,1327,746,1366
332,0,1,0,1,961,1324,747,1365
331,2,1,0,1,1102,1323,749,1364
330,0,1,0,1,1218,1321,750,1363
330,0,1,0,1,952,1321,750,1363
330,0,1,0,1,899,1320,750,1362
331,0,1,0,1,922,1320,749,1359
331,0,1,0,1,1136,1317,748,1358
331,0,1,0,1,834,1315,748,1354
334,0,1,0,1,1182,1316,745,1352
333,0,1,0,1,981,1314,747,1349
332,0,3,0,1,1035,1311,747,1347
330,0,3,0,1,1070,1310,749,1343
331,0,3,0,1,1144,1310,748,1340
331,0,3,0,1,889,1308,748,1340
334,0,3,0,1,919,1308,745,1338
334,0,3,0,1,1251,1304,746,1339
334,0,3,0,1,959,1304,746,1339
333,0,3,0,1,1109,1304,746,1334
330,0,3,0,1,914,1300,750,1336
328,0,3,0,1,987,1299,752,1335
329,1,3,0,1,1059,1296,750,1331
331,2,3,0,1,851,1293,749,1329
331,5,3,0,1,997,1291,749,1327
331,4,3,0,1,909,1288,748,1327
331,5,3,0,1,939,1285,749,1327
327,0,3,0,1,1200,1280,752,1330
328,2,3,0,1,1263,1279,752,1327
329,1,3,0,1,976,1276,750,1329
326,0,3,0,1,980,1276,753,1324
325,1,3,0,1,952,1275,755,1326
326,2,3,0,1,1050,1275,754,1323
324,3,3,0,1,1175,1271,756,1324
324,1,3,0,1,853,1270,755,1320
325,2,3,0,1,1120,1268,755,1316
325,1,3,0,1,1201,1267,754,1315
325,2,3,0,1,816,1264,754,1312
325,0,3,0,1,1006,1264,755,1306
325,0,3,0,1,1037,1263,754,1307
324,0,3,0,1,1213,1261,756,1305
323,0,3,0,1,936,1259,757,1301
324,0,3,0,1,1003,1259,755,1295
322,0,3,0,1,941,1256,758,1294
323,0,3,0,1,912,1256,757,1292
329,0,3,0,1,859,1252,750,1285
322,0,3,0,1,1111,1252,757,1285
324,0,3,0,1,1155,1250,756,1283
324,0,3,0,1,1290,1249,755,1279
326,2,3,0,1,1296,1248,754,1278
323,0,3,0,1,936,1246,757,1276
323,0,3,0,1,830,1246,757,1276
324,0,3,0,1,847,1240,755,1273
321,0,2,0,1,814,1237,758,1273
320,0,2,0,1,1162,1234,760,1273
319,0,2,0,1,986,1231,761,1270
319,0,2,0,1,1065,1228,761,1272
318,0,2,0,1,1196,1226,762,1271
318,4,2,0,1,1125,1222,762,1270
318,2,2,0,1,1145,1218,762,1266
318,4,2,0,1,958,1216,762,1267
317,3,2,0,1,877,1215,763,1266
317,5,2,0,1,1160,1211,763,1264
316,3,2,0,1,1086,1212,764,1263
315,2,2,0,1,1042,1208,765,1262
314,1,2,0,1,923,1209,765,1257
315,1,2,0,1,1118,1205,764,1258
312,0,2,0,1,945,1206,767,1253
312,1,2,0,1,855,1204,767,1246
312,1,2,0,1,1056,1204,767,1246
312,1,2,0,1,1197,1199,767,1244
312,1,2,0,1,1066,1199,767,1241
312,1,2,0,1,1054,1198,767,1237
311,2,2,0,1,1299,1196,768,1235
311,0,2,0,1,810,1192,768,1231
313,0,2,0,1,985,1190,766,1228
314,0,2,0,1,831,1190,765,1226
314,3,2,0,1,1158,1186,765,1222
313,2,2,0,1,1178,1184,767,1220
311,2,2,0,1,1198,1183,769,1219
311,2,2,0,1,891,1181,769,1217
312,3,2,0,1,1203,1180,768,1216
311,4,2,0,1,1263,1178,769,1217
311,4,2,0,1,878,1172,769,1214
310,3,2,0,1,1187,1168,770,1215
309,2,2,0,1,945,1161,771,1214
309,2,2,0,1,984,1158,771,1215
308,2,2,0,1,1285,1154,772,1213
308,2,2,0,1,1247,1152,772,1214
308,6,2,0,1,1130,1147,772,1212
308,6,2,0,1,1064,1144,772,1210
307,5,2,0,1,1035,1140,773,1211
307,6,2,0,1,1003,1136,773,1210
307,6,2,0,1,1298,1137,773,1209
307,6,2,0,1,1072,1135,773,1207
306,5,2,0,1,1184,1136,774,1205
306,5,2,0,1,1138,1135,774,1203
305,4,2,0,1,1228,1134,775,1203
305,4,2,0,1,1169,1133,774,1198
305,4,2,0,1,1042,1134,774,1193
301,4,2,0,1,1129,1130,778,1189
301,2,2,0,1,824,1126,779,1186
300,1,2,0,1,1150,1124,780,1183
305,4,2,0,1,909,1126,775,1177
305,5,2,0,1,874,1123,775,1168
304,2,2,0,1,1053,1121,776,1163
303,1,2,0,1,1008,1119,776,1160
304,2,2,0,1,977,1115,775,1157
304,2,2,0,1,1231,1114,775,1153
303,7,2,0,1,863,1112,776,1150
303,6,2,0,1,1016,1108,776,1147
304,7,2,0,1,1034,1106,775,1145
303,7,2,0,1,1286,1105,776,1144
302,8,2,0,1,1297,1100,777,1142
302,5,2,0,1,1266,1097,778,1141
301,4,2,0,1,912,1093,779,1140
300,6,2,0,1,1170,1090,780,1140
300,3,2,0,1,997,1088,779,1139
300,3,2,0,1,885,1085,780,1136
297,0,2,0,1,886,1081,782,1137
295,0,2,0,1,914,1078,784,1137
294,0,2,0,1,1075,1077,785,1137
293,2,2,0,1,924,1073,787,1133
294,3,2,0,1,1225,1072,786,1132
294,5,2,0,1,956,1070,786,1130
294,5,2,0,1,815,1068,786,1125
294,3,2,0,1,1009,1064,786,1121
288,0,2,0,1,939,1061,791,1121
288,0,2,0,1,1011,1059,792,1119
290,0,2,0,1,1240,1058,790,1112
289,0,2,0,1,906,1055,790,1111
288,0,2,0,1,1126,1055,792,1106
288,1,2,0,1,1261,1053,791,1097
289,0,2,0,1,1036,1049,790,1093
288,0,2,0,1,973,1047,791,1091
289,0,2,0,1,1011,1044,790,1088
290,0,2,0,1,985,1041,789,1083
292,1,2,0,1,1065,1038,788,1080
290,2,2,0,1,812,1035,789,1076
289,2,2,0,1,999,1033,790,1074
285,0,2,0,1,1030,1028,794,1073
283,0,2,0,1,1107,1024,797,1072
283,0,2,0,1,821,1021,796,1068
285,0,2,0,1,809,1017,794,1067
286,0,2,0,1,1157,1016,793,1067
285,0,2,0,1,1165,1009,795,1066
283,0,2,0,1,1019,1002,797,1065
282,1,2,0,1,1153,996,798,1062
283,1,2,0,1,1111,990,797,1061
283,0,2,0,1,1243,987,796,1059
283,0,2,0,1,1142,984,796,1059
283,0,2,0,1,1033,978,797,1058
282,0,2,0,1,1018,975,798,1056
282,0,2,0,1,1179,974,798,1055
282,2,2,0,1,911,977,798,1049
282,3,2,0,1,1093,976,798,1047
280,0,2,0,1,1214,974,800,1048
282,3,2,0,1,925,970,797,1041
281,1,2,0,1,947,968,799,1039
280,2,2,0,1,1180,966,800,1037
275,0,2,0,1,1110,962,804,1031
274,0,2,0,1,1194,961,806,1026
278,0,2,0,1,851,956,802,1019
282,5,2,0,1,886,955,797,1014
280,6,2,0,1,1145,952,799,1000
283,9,2,0,1,903,949,797,997
280,8,2,0,1,1190,946,799,994
281,5,2,0,1,1143,942,799,993
281,3,2,0,1,1141,939,799,987
279,1,2,0,1,1285,935,800,983
278,7,2,0,1,1159,931,801,976
275,2,2,0,1,803,927,805,972
276,9,2,0,1,1000,925,804,970
272,5,2,0,1,1038,919,808,967
272,4,2,0,1,846,915,808,966
270,3,2,0,1,893,907,809,963
270,5,2,0,1,926,901,809,961
273,6,2,0,1,1236,898,807,961
269,2,2,0,1,1091,892,811,958
268,1,2,0,1,889,886,811,958
267,0,2,0,1,1072,880,813,955
267,2,2,0,1,863,878,813,950
269,3,2,0,1,1204,874,811,946
267,2,2,0,1,1240,871,813,945
265,0,2,0,1,1268,867,815,941
263,1,2,0,1,1118,863,817,938
262,2,3,0,1,878,861,818,936
263,0,3,0,1,882,855,817,932
262,0,3,0,1,832,854,818,928
261,5,3,0,1,1223,854,819,923
262,5,3,0,1,1099,849,818,921
262,7,3,0,1,1257,848,818,914
265,4,3,0,1,1174,844,815,909
267,7,3,0,1,1134,843,813,899
268,8,3,0,1,905,838,812,892
266,6,3,0,1,1238,837,814,888
265,1,3,0,1,1140,827,815,884
269,2,3,0,1,1233,825,810,878
262,0,3,0,1,1114,819,817,875
262,0,3,0,1,834,814,817,871
260,1,3,0,1,1296,809,820,866
262,2,3,0,1,966,806,818,863
261,2,3,0,1,931,804,818,861
259,3,3,0,1,816,801,820,858
257,5,3,0,1,801,794,823,857
256,3,3,0,1,1027,784,824,853
255,2,3,0,1,958,776,825,851
256,3,3,0,1,1271,770,824,844
256,4,3,0,1,855,754,824,841
255,2,3,0,1,1042,748,825,840
254,1,3,0,1,1223,746,826,836
253,3,3,0,1,1055,746,827,835
252,2,3,0,1,976,741,827,831
251,3,3,0,1,1166,738,828,833
251,3,3,0,1,954,735,828,834
250,2,3,0,1,1134,732,829,831
249,0,3,0,1,1226,732,831,830
248,0,2,0,1,909,729,832,825
247,0,2,0,1,809,722,832,823
248,0,2,0,1,1152,719,832,815
252,0,2,0,1,984,703,828,811
245,0,2,0,1,1204,711,834,804
248,0,2,0,1,1158,708,831,795
252,1,2,0,1,1094,706,828,786
252,2,2,0,1,909,706,828,775
253,0,2,0,1,1147,697,827,769
251,5,2,0,1,1072,693,829,758
251,2,2,0,1,1239,694,829,751
251,0,2,0,1,956,685,828,745
249,0,2,0,1,1230,683,831,740
243,0,2,0,1,1247,677,837,734
241,0,2,0,1,1003,670,838,730
241,0,2,0,1,1171,667,838,727
241,0,2,0,1,1088,667,838,727
245,0,2,0,1,892,656,835,718
243,0,2,0,1,1073,649,836,715
240,0,2,0,1,1294,643,839,711
241,0,2,0,1,847,637,839,708
243,0,2,0,1,959,630,836,705
241,0,2,0,1,1233,627,839,705
240,0,2,0,1,964,614,839,701
240,0,2,0,1,1297,610,840,696
238,0,2,0,1,1001,608,841,689
235,0,2,0,1,1144,602,845,689
233,0,2,0,1,1212,598,846,679
233,0,2,0,1,1215,595,847,673
234,0,2,0,1,1184,589,846,670
233,0,2,0,1,943,585,847,666
232,0,2,0,1,1234,582,847,660
232,0,2,0,1,874,576,848,651
232,0,2,0,1,994,571,848,643
233,0,2,0,1,1282,566,847,638
235,3,2,0,1,974,561,845,627
234,0,2,0,1,1139,555,845,624
236,0,2,0,1,1210,551,844,619
234,0,2,0,1,982,543,845,611
233,0,2,0,1,1224,537,847,602
231,0,2,0,1,1288,524,848,595
231,0,2,0,1,1118,520,848,589
228,0,2,0,1,1163,517,851,585
232,0,2,0,1,829,514,847,576
228,0,2,0,1,898,508,851,571
221,0,3,0,1,907,496,858,567
219,0,3,0,1,873,487,861,559
221,1,3,0,1,1155,486,858,552
218,2,3,0,1,1128,478,861,547
216,1,3,0,1,1252,466,864,541
214,1,3,0,1,928,459,866,539
216,5,3,0,1,1037,451,864,532
211,3,3,0,1,1123,445,868,526
211,0,3,0,1,1289,433,868,523
216,3,3,0,1,1001,426,864,516
216,8,3,0,1,900,419,864,512
210,0,3,0,1,1135,408,869,504
207,0,3,0,1,1056,406,872,504
210,3,3,0,1,841,397,869,498
202,0,3,0,1,1300,393,877,492
205,0,3,0,1,1012,385,875,481
205,0,3,0,1,947,376,875,472
204,0,3,0,1,898,369,876,471
200,0,3,0,1,905,361,880,462
198,0,3,0,1,1125,354,882,449
198,0,3,0,1,869,348,882,435
200,1,3,0,1,1123,334,880,429
200,2,3,0,1,889,327,879,416
202,3,3,0,1,1198,319,877,411
204,0,3,0,1,1290,312,876,398
201,0,3,0,1,1024,303,878,383
202,0,3,0,1,990,288,877,372
205,0,3,0,1,1075,282,874,360
205,0,3,0,1,1086,273,874,351
201,0,3,0,1,1297,265,878,346
204,0,3,0,1,885,257,875,340
196,0,3,0,1,1021,244,884,331
198,0,3,0,1,940,235,882,325
207,0,3,0,1,1290,225,873,315
191,0,3,0,1,831,214,889,304
191,0,3,0,1,826,205,889,298
185,0,3,0,1,998,193,895,289
180,0,3,0,1,872,186,899,279
180,0,3,0,1,1001,174,899,269
178,0,3,0,1,910,164,901,260
167,0,3,0,1,814,152,913,251
171,0,3,0,1,997,142,909,240
175,0,3,0,1,1219,133,905,229
163,0,3,0,1,1236,110,916,220
167,26,3,0,1,1116,113,913,209
166,10,3,0,1,928,98,913,200
167,3,3,0,1,1118,89,912,187
171,7,3,0,1,974,76,909,181
167,5,3,0,1,1192,66,913,167
221,22,3,0,1,1292,60,859,155
255,38,3,0,1,942,49,825,148
259,62,3,0,1,961,44,821,136
259,77,3,0,1,879,25,821,124
259,77,3,0,1,1258,25,821,124
250,89,3,0,1,822,2,829,104
250,89,3,0,1,1130,2,829,104
250,89,3,0,1,992,2,829,104
250,89,3,0,1,1285,2,829,104
250,89,3,0,1,1041,2,829,104
250,89,3,0,1,806,2,829,104
250,89,3,0,1,1297,2,829,104
250,89,3,0,1,1133,2,829,104
250,89,3,1,0,1054,2,829,104
368,5,1,0,1,362,733,712,757
369,6,1,0,1,361,732,711,756
369,6,1,0,1,362,732,710,758
368,5,1,0,1,362,731,712,758
369,6,1,0,1,362,734,711,757
365,4,1,0,1,362,734,714,758
365,4,1,0,1,362,730,714,759
364,1,1,0,1,363,726,716,762
365,3,1,0,1,361,726,715,762
363,2,1,0,1,360,728,716,763
361,1,1,0,1,360,729,719,762
361,3,1,0,1,359,732,719,762
362,4,1,0,1,360,732,718,759
361,3,1,0,1,359,734,719,760
360,2,1,0,1,359,735,720,759
357,1,1,0,1,360,736,723,757
358,0,2,0,1,359,737,722,757
359,1,2,0,1,358,738,720,758
353,0,2,0,1,357,736,726,763
349,0,2,0,1,354,735,731,768
349,0,2,0,1,355,730,730,771
350,0,2,0,1,359,724,729,772
350,0,2,0,1,355,727,730,774
349,0,2,0,1,355,726,730,777
350,0,2,0,1,358,724,730,775
350,0,2,0,1,357,727,729,772
351,0,2,0,1,355,732,729,771
349,0,2,0,1,354,734,731,775
350,0,2,0,1,62,733,730,771
350,0,2,0,1,64,742,730,775
350,0,2,0,1,64,747,729,773
348,0,2,0,1,67,748,731,783
348,0,2,0,1,66,744,731,783
347,0,2,0,1,69,745,732,787
348,0,2,0,1,67,743,731,788
347,0,2,0,1,70,746,732,791
346,0,2,0,1,69,746,734,791
347,2,2,0,1,68,749,733,791
345,2,2,0,1,68,751,735,790
346,3,2,0,1,71,755,733,791
346,5,2,0,1,72,760,734,792
349,6,2,0,1,71,761,730,794
351,7,2,0,1,72,766,728,798
351,10,2,0,1,73,767,729,799
344,3,2,0,1,75,765,736,798
342,1,2,0,1,78,766,737,805
340,0,2,0,1,78,760,740,811
338,0,2,0,1,60,753,741,815
338,0,2,0,1,83,769,742,819
337,0,2,0,1,82,770,742,817
336,0,2,0,1,83,774,743,816
340,0,2,0,1,88,782,739,817
341,0,2,0,1,88,783,739,819
340,0,2,0,1,90,786,740,821
340,0,2,0,1,93,789,740,825
337,1,2,0,1,97,789,743,830
334,0,2,0,1,99,789,746,834
335,0,2,0,1,101,790,745,843
335,0,2,0,1,102,792,745,846
335,1,2,0,1,103,794,744,845
334,0,2,0,1,106,798,746,849
333,0,2,0,1,111,805,746,849
331,0,2,0,1,112,808,749,850
331,3,2,0,1,114,815,749,851
334,0,2,0,1,115,820,746,855
334,0,2,0,1,117,822,746,858
334,0,2,0,1,120,825,746,864
333,0,2,0,1,124,827,747,869
332,0,2,0,1,126,829,748,874
331,0,2,0,1,129,827,749,880
329,0,2,0,1,136,833,751,887
329,0,2,0,1,131,833,751,886
328,0,2,0,1,133,837,752,890
330,0,2,0,1,136,843,750,891
329,0,2,0,1,141,848,751,901
329,0,2,0,1,145,853,751,901
330,0,2,0,1,148,859,750,904
329,0,2,0,1,152,863,750,907
330,1,2,0,1,156,867,750,909
330,6,2,0,1,161,870,750,917
329,3,2,0,1,166,872,751,929
330,2,2,0,1,170,876,750,936
329,3,2,0,1,169,875,751,935
327,3,2,0,1,173,879,752,942
327,7,2,0,1,176,884,752,941
328,4,2,0,1,182,895,752,946
328,3,2,0,1,183,899,752,946
328,2,2,0,1,186,906,752,945
328,0,2,0,1,190,914,752,952
326,0,2,0,1,196,916,754,957
329,0,2,0,1,201,924,751,962
327,1,2,0,1,207,926,752,971
324,0,2,0,1,209,922,755,979
323,0,2,0,1,216,924,757,995
323,0,2,0,1,216,925,757,1003
322,0,2,0,1,217,928,758,1003
322,0,2,0,1,218,930,757,1005
321,0,2,0,1,223,935,759,1013
321,0,2,0,1,229,950,759,1013
323,0,2,0,1,230,955,757,1012
325,0,2,0,1,232,961,754,1011
323,0,2,0,1,238,963,756,1028
321,0,2,0,1,242,970,758,1024
322,0,2,0,1,249,975,758,1035
320,0,2,0,1,254,979,760,1044
317,0,2,0,1,261,981,762,1053
315,0,2,0,1,264,982,764,1059
315,0,2,0,1,265,984,764,1059
316,0,2,0,1,270,985,763,1066
316,0,2,0,1,277,996,764,1070
316,0,2,0,1,281,1007,763,1073
317,0,2,0,1,283,1015,763,1069
318,0,2,0,1,285,1022,762,1067
320,0,2,0,1,290,1025,760,1076
321,0,2,0,1,296,1036,759,1081
320,0,2,0,1,303,1042,760,1090
316,0,2,0,1,308,1042,763,1099
317,0,2,0,1,312,1043,762,1111
316,0,2,0,1,320,1046,763,1121
314,0,2,0,1,325,1052,765,1127
313,0,2,0,1,328,1054,767,1132
314,0,2,0,1,334,1059,766,1137
312,0,2,0,1,337,1066,768,1141
311,0,2,0,1,341,1077,769,1140
314,0,2,0,1,346,1084,765,1138
317,0,2,0,1,352,1094,762,1142
319,0,2,0,1,357,1098,761,1152
315,0,2,0,1,364,1105,764,1156
316,0,2,0,1,371,1110,764,1164
313,0,2,0,1,378,1114,767,1173
313,0,2,0,1,387,1117,767,1186
312,0,2,0,1,394,1119,767,1199
309,0,2,0,1,401,1124,770,1205
310,0,2,0,1,403,1127,769,1208
309,0,2,0,1,407,1130,770,1211
308,0,2,0,1,411,1139,771,1211
309,0,2,0,1,421,1154,770,1217
306,0,2,0,1,429,1164,773,1223
313,0,2,0,1,438,1174,767,1230
309,0,2,0,1,442,1180,770,1233
314,0,2,0,1,452,1187,766,1243
309,0,3,0,1,460,1190,770,1250
309,0,3,0,1,470,1193,771,1265
308,0,3,0,1,481,1198,772,1278
306,0,3,0,1,489,1203,774,1287
305,0,3,0,1,497,1207,775,1296
304,0,3,0,1,503,1210,775,1300
304,1,3,0,1,513,1223,776,1306
303,0,3,0,1,524,1233,776,1311
303,0,3,0,1,534,1245,776,1314
304,0,3,0,1,541,1254,776,1316
304,0,3,0,1,553,1264,776,1320
302,0,3,0,1,564,1269,777,1334
302,0,3,0,1,576,1274,778,1346
304,3,3,0,1,587,1280,775,1357
302,1,3,0,1,599,1281,777,1370
302,0,3,0,1,611,1285,778,1384
300,0,3,0,1,618,1291,779,1387
297,1,3,0,1,626,1296,782,1391
295,1,3,0,1,631,1303,784,1396
295,4,3,0,1,646,1316,784,1400
296,9,3,0,1,660,1334,783,1403
292,1,3,0,1,675,1343,788,1411
292,0,3,0,1,691,1352,788,1418
291,0,3,0,1,707,1361,789,1429
287,0,3,0,1,725,1375,792,1441
285,0,3,0,1,744,1384,795,1461
282,0,3,0,1,763,1389,797,1478
283,0,3,0,1,782,1393,797,1498
280,0,3,0,1,263,1402,800,1513
276,0,3,0,1,813,1407,803,1527
273,0,3,0,1,829,1415,806,1535
273,0,3,0,1,854,1431,806,1545
269,0,3,0,1,432,1444,811,1558
268,0,3,0,1,418,1463,812,1571
269,0,3,0,1,920,1477,810,1582
264,0,3,0,1,937,1488,816,1581
260,17,3,0,1,960,1500,819,1593
262,29,3,0,1,990,1522,817,1603
260,32,3,0,1,1022,1532,819,1631
253,30,3,0,1,1061,1543,827,1668
253,30,3,0,1,1096,1553,826,1694
245,24,3,0,1,1133,1570,834,1716
242,4,3,0,1,1164,1583,838,1730
238,15,3,0,1,624,1591,842,1744
235,3,3,0,1,141,1612,844,1756
231,2,3,0,1,635,1635,849,1775
225,36,3,0,1,1329,1663,854,1788
219,0,3,0,1,1379,1691,861,1804
219,0,3,0,1,1432,1714,860,1825
215,0,3,0,1,1502,1739,865,1856
209,0,3,0,1,1563,1765,871,1894
201,0,3,0,1,1646,1800,878,1919
204,0,3,0,1,1713,1833,875,1920
206,0,3,0,1,1774,1848,874,1919
206,0,3,0,1,1774,1848,874,1919
206,0,3,0,1,1774,1848,874,1919
206,0,3,1,0,1774,1848,874,1919
206,0,3,1,0,1774,1848,874,1919
206,0,3,1,0,1774,1848,874,1919
206,0,3,1,0,1774,1848,874,1919
206,0,3,1,0,1774,1848,874,1919
206,0,3,1,0,1774,1848,874,1919
206,0,3,1,0,1774,1848,874,1919
206,0,3,1,0,1774,1848,874,1919
280,0,1,0,1,69,1344,800,1364
280,0,1,0,1,69,1344,800,1364
273,0,1,0,1,157,1338,806,1362
270,0,1,0,1,78,1336,810,1357
270,0,1,0,1,72,1329,810,1350
272,0,1,0,1,68,1323,808,1344
269,0,1,0,1,66,1316,810,1339
269,0,1,0,1,66,1311,810,1337
267,0,1,0,1,158,1307,813,1334
269,0,1,0,1,151,1301,810,1325
272,0,1,0,1,151,1294,808,1324
271,0,1,0,1,149,1288,809,1321
271,0,1,0,1,149,1285,808,1315
271,0,1,0,1,148,1277,808,1307
270,0,1,0,1,153,1274,809,1304
270,0,1,0,1,153,1269,809,1301
269,0,1,0,1,151,1262,811,1295
265,0,1,0,1,154,1255,814,1291
263,0,1,0,1,158,1252,816,1284
265,0,1,0,1,148,1249,815,1278
264,0,1,0,1,140,1240,816,1272
267,0,1,0,1,147,1233,812,1266
263,0,1,0,1,58,1231,816,1260
262,0,1,0,1,141,1226,817,1255
263,0,1,0,1,117,1219,817,1252
261,0,1,0,1,149,1213,819,1246
261,0,1,0,1,137,1211,819,1240
262,0,1,0,1,121,1204,818,1233
267,0,1,0,1,52,1204,812,1228
276,0,3,0,1,149,1199,803,1223
268,0,3,0,1,122,1194,811,1220
266,0,3,0,1,123,1191,814,1215
272,0,3,0,1,124,1187,808,1208
265,0,3,0,1,127,1182,815,1205
260,0,3,0,1,128,1180,819,1203
261,0,3,0,1,128,1172,819,1199
257,0,3,0,1,130,1168,823,1195
256,0,3,0,1,130,1164,823,1191
256,0,3,0,1,132,1159,824,1188
259,0,3,0,1,128,1155,821,1181
261,0,3,0,1,128,1152,818,1176
259,0,3,0,1,124,1150,820,1171
257,0,3,0,1,122,1145,823,1168
256,0,3,0,1,122,1141,823,1164
260,0,3,0,1,129,1137,819,1158
258,0,3,0,1,122,1132,822,1156
262,0,3,0,1,121,1131,817,1152
261,0,3,0,1,126,1127,818,1150
261,0,3,0,1,124,1121,818,1145
261,0,3,0,1,145,1119,818,1143
261,0,3,0,1,145,1119,818,1143
261,0,3,0,1,145,1119,818,1143
261,0,3,0,1,145,1119,818,1143
261,0,3,0,1,145,1119,818,1143
261,0,3,0,1,145,1119,818,1143
261,0,3,0,1,145,1119,818,1143
261,0,3,0,1,145,1119,818,1143
261,0,3,0,1,145,1119,818,1143
261,0,3,0,1,145,1119,818,1143
261,0,3,0,1,145,1119,818,1143
269,0,3,0,1,117,1116,811,1140
269,0,3,0,1,117,1116,811,1140
269,0,3,0,1,117,1116,811,1140
259,0,3,0,1,124,1115,820,1139
259,0,3,0,1,129,1110,820,1134
256,0,3,0,1,127,1107,824,1136
258,0,3,0,1,126,1105,822,1134
257,0,3,0,1,126,1100,823,1130
257,0,3,0,1,126,1099,822,1128
257,0,3,0,1,122,1094,822,1124
256,0,3,0,1,126,1091,823,1124
258,0,3,0,1,124,1087,822,1120
256,0,3,0,1,160,1082,823,1115
255,0,3,0,1,160,1082,824,1115
256,0,3,0,1,122,1076,823,1112
256,0,3,0,1,125,1074,823,1109
252,0,3,0,1,122,1069,827,1107
251,0,3,0,1,122,1067,828,1103
248,0,3,0,1,123,1068,831,1103
251,0,3,0,1,121,1063,828,1099
250,0,3,0,1,120,1061,830,1097
248,0,3,0,1,120,1057,832,1096
249,0,3,0,1,119,1055,831,1094
248,0,3,0,1,119,1054,831,1093
250,0,3,0,1,118,1051,830,1090
250,0,3,0,1,117,1050,829,1088
250,0,3,0,1,120,1046,830,1084
249,0,3,0,1,119,1045,831,1081
250,0,3,0,1,117,1042,830,1078
246,0,3,0,1,119,1045,833,1075
244,0,3,0,1,121,1044,836,1074
244,0,3,0,1,118,1042,835,1074
247,0,3,0,1,115,1035,833,1071
245,0,3,1,1,115,1030,834,1071
247,0,3,1,1,89,1030,833,1069
243,0,3,1,1,115,1028,837,1067
242,0,3,1,1,114,1024,837,1063
242,0,3,1,1,108,1023,837,1056
239,0,3,1,1,106,1017,841,1059
236,0,3,1,1,107,1016,843,1058
233,0,3,1,1,108,1013,847,1058
232,0,3,1,1,107,1012,848,1056
233,0,3,1,1,103,1010,846,1049
234,0,3,1,1,68,1012,845,1048
234,0,3,1,1,102,1008,845,1047
235,0,3,1,1,98,1008,844,1047
235,0,3,1,1,98,1007,844,1049
236,0,3,1,1,95,1006,844,1045
237,0,3,1,1,93,1006,843,1045
235,0,3,1,1,106,1002,845,1044
235,0,3,1,1,108,1002,844,1041
236,0,3,1,1,105,999,843,1040
236,0,3,1,1,106,997,844,1039
237,0,3,1,1,104,996,842,1038
231,0,3,1,1,104,995,848,1031
230,0,3,1,1,98,989,849,1022
228,0,3,1,1,97,986,851,1021
230,0,3,1,1,92,980,849,1022
225,0,3,1,1,92,977,855,1022
225,0,3,1,1,92,976,855,1021
224,0,3,1,1,89,973,856,1023
223,0,3,1,1,86,970,857,1021
222,0,3,1,1,87,967,858,1021
222,0,3,1,1,87,966,858,1020
222,0,3,1,1,87,965,858,1019
221,0,3,1,1,87,960,859,1016
222,0,3,1,1,89,958,858,1017
222,0,3,1,1,86,955,858,1012
220,0,3,1,1,88,953,859,1010
219,0,3,1,1,79,949,861,1006
220,0,3,1,1,65,946,860,1003
218,0,3,1,1,65,944,861,1001
218,0,3,1,1,65,942,862,999
219,0,3,1,1,76,940,861,996
219,0,3,1,1,70,939,860,992
218,0,3,1,1,78,938,862,988
218,0,3,1,1,62,939,862,984
215,0,3,1,1,64,940,864,979
214,0,3,1,1,78,937,865,978
217,0,3,1,1,61,935,862,977
214,0,3,1,1,63,930,865,977
214,0,3,1,1,66,925,866,973
213,0,3,1,1,100,925,867,973
214,0,3,1,1,102,924,866,968
212,0,3,1,1,69,924,867,966
205,0,3,1,1,75,919,875,961
207,0,3,1,1,73,916,873,958
205,0,3,1,1,69,911,875,958
204,0,3,1,1,68,908,875,958
203,0,3,1,1,69,903,876,957
203,0,3,1,1,65,901,876,955
200,0,3,1,1,118,900,880,954
197,0,3,1,1,120,894,883,954
195,0,3,1,1,294,889,885,952
197,0,3,1,1,128,884,883,947
196,0,3,1,1,129,881,884,947
195,0,3,1,1,70,879,884,947
189,0,2,1,1,77,881,891,937
189,0,2,1,1,308,881,890,935
190,0,2,1,1,144,878,890,928
191,0,2,1,1,136,873,889,926
187,0,2,1,1,139,870,892,918
186,0,2,1,1,89,868,894,921
187,0,2,1,1,95,866,892,916
183,0,2,1,1,148,859,897,910
183,0,2,1,1,131,855,897,908
181,0,2,1,1,131,852,899,903
185,0,2,1,1,127,849,895,903
180,0,2,1,1,93,843,899,900
174,0,2,1,1,96,836,905,896
170,0,2,1,1,100,835,909,892
170,0,2,1,1,101,830,910,887
168,0,2,1,1,107,825,911,882
169,0,2,1,1,108,820,910,877
167,0,2,1,1,110,812,912,875
167,0,2,1,1,111,806,913,877
166,0,2,1,1,115,796,913,874
164,0,2,1,1,121,788,915,869
163,0,2,1,1,123,784,917,867
161,0,2,1,1,125,780,919,864
157,0,2,1,1,128,776,923,860
155,0,2,1,1,129,774,924,857
154,0,2,1,1,132,765,926,851
151,0,2,1,1,133,764,929,850
150,0,2,1,1,133,760,930,847
146,0,2,1,1,133,760,933,844
142,0,2,1,1,137,757,938,838
138,0,2,1,1,140,749,942,833
133,0,2,1,1,148,741,947,830
131,0,2,1,1,149,737,949,824
126,0,2,1,1,157,731,953,815
123,0,2,1,1,162,725,956,809
118,0,2,1,1,171,719,961,800
114,0,2,1,1,172,714,966,792
111,0,2,1,1,175,708,968,788
109,0,2,1,1,182,699,970,779
110,0,2,1,1,188,693,969,770
106,0,2,1,1,191,690,974,765
100,0,2,0,1,201,677,980,757
98,0,3,0,1,207,664,981,754
97,0,3,0,1,216,661,982,747
95,0,3,0,1,220,655,984,742
92,0,3,0,1,224,650,988,740
88,0,3,0,1,227,647,991,734
74,0,3,0,1,234,638,1005,731
71,0,3,0,1,242,627,1008,725
63,0,3,0,1,248,616,1017,718
60,0,3,0,1,259,605,1020,713
57,0,3,0,1,268,593,1023,707
62,0,3,0,1,270,585,1017,705
61,0,3,0,1,275,583,1019,699
62,0,3,0,1,281,578,1017,689
58,0,3,0,1,289,576,1022,678
57,0,3,0,1,300,564,1023,671
59,0,3,0,1,308,551,1020,662
58,0,3,0,1,315,545,1021,653
59,0,3,0,1,323,534,1021,645
68,0,3,0,1,329,526,1012,642
83,0,3,0,1,340,514,997,631
99,0,3,0,1,354,505,980,613
130,0,3,0,1,359,498,949,600
164,0,3,0,1,368,483,916,588
94,0,3,0,1,396,459,986,575
90,0,3,0,1,412,444,990,558
93,0,3,0,1,423,426,987,546
82,0,3,0,1,443,389,997,542
78,25,3,0,1,449,385,1002,529
80,0,3,0,1,473,362,999,509
69,36,3,0,1,487,343,1011,499
66,68,3,0,1,495,336,1013,491
64,22,3,0,1,518,314,1016,470
65,36,3,0,1,535,303,1014,453
62,53,3,0,1,560,290,1017,436
49,142,3,0,1,572,259,1031,423
56,158,3,0,1,532,268,1024,397
52,160,3,0,1,563,254,1027,380
45,197,3,0,1,505,224,1034,365
47,223,3,0,1,508,197,1032,341
43,0,3,0,1,531,162,1037,320
60,0,3,0,1,535,143,1019,295
53,293,3,0,1,600,5,1027,271
69,0,3,0,1,599,33,1010,245
105,0,3,0,1,614,32,975,214
102,0,3,0,1,604,16,978,192
123,0,3,0,1,634,0,956,153
104,0,3,0,1,647,0,976,122
77,22,3,0,1,671,0,1003,83
65,19,3,0,1,694,0,1015,54
65,19,3,0,1,694,0,1015,54
65,19,3,1,0,694,0,1015,54
355,0,1,0,1,158,617,725,644
353,0,1,0,1,165,615,726,642
355,0,1,0,1,159,615,725,639
354,0,1,0,1,154,616,725,640
354,0,1,0,1,154,616,725,640
350,0,1,0,1,153,615,730,639
350,0,2,0,1,153,616,729,643
350,0,2,0,1,153,613,729,646
352,2,2,0,1,150,608,727,647
349,1,2,0,1,158,605,730,650
348,2,2,0,1,150,604,732,651
349,3,2,0,1,149,601,730,646
348,2,2,0,1,159,602,731,643
348,4,2,0,1,154,604,732,643
346,2,2,0,1,157,603,733,642
347,2,2,0,1,148,603,733,639
346,1,2,0,1,160,602,733,637
346,2,2,0,1,151,603,733,636
347,4,2,0,1,152,603,732,635
347,2,2,0,1,153,604,733,631
346,3,2,0,1,151,601,733,631
344,3,2,0,1,150,602,735,632
345,4,2,0,1,154,598,735,633
345,2,2,0,1,150,597,734,633
344,3,2,0,1,156,594,736,636
343,2,2,0,1,159,592,737,636
342,1,2,0,1,159,591,738,636
341,1,2,0,1,162,592,739,636
342,3,2,0,1,158,592,737,634
343,5,2,0,1,161,594,737,632
343,7,2,0,1,162,593,737,629
343,7,2,1,1,153,594,737,629
343,7,2,1,1,156,594,737,629
343,5,2,1,1,138,596,737,632
342,13,2,1,1,139,595,737,630
341,18,2,1,1,152,593,739,629
340,17,2,1,1,156,593,739,632
338,27,2,1,1,151,595,742,633
337,23,2,1,1,160,593,743,635
336,24,2,1,1,133,592,744,636
335,20,2,1,1,133,589,744,637
334,16,2,1,1,134,589,745,640
333,17,2,1,1,137,587,746,643
334,18,2,1,1,136,586,746,642
332,17,2,1,1,137,586,747,642
332,19,2,1,1,138,586,747,639
327,14,2,1,1,142,588,753,638
330,17,2,1,1,131,591,750,636
330,16,2,1,1,131,595,750,639
331,18,2,1,1,133,599,748,634
330,18,2,1,1,135,601,750,634
331,18,2,1,1,137,602,749,635
330,16,2,1,1,140,603,750,636
327,12,2,1,1,141,602,752,640
325,9,2,1,1,141,601,754,643
323,5,2,1,1,136,599,756,650
321,2,2,1,1,134,598,759,655
317,0,2,1,1,127,600,762,660
317,0,2,1,1,128,599,762,659
316,0,2,1,1,133,598,763,657
316,0,2,1,1,129,601,763,658
317,0,2,1,1,119,604,762,652
316,0,2,1,1,116,606,763,654
320,1,2,1,1,111,607,759,651
319,1,2,1,1,103,608,760,653
322,4,2,1,1,102,613,757,654
316,0,2,1,1,89,616,763,655
317,0,2,1,1,107,616,762,655
319,1,2,1,1,109,618,761,657
321,2,2,1,1,107,620,758,659
315,0,2,1,1,108,614,764,668
315,0,2,1,1,107,608,764,674
311,0,2,1,1,104,607,769,685
307,0,2,1,1,107,606,773,680
306,0,2,1,1,105,604,774,681
312,0,2,1,1,103,604,768,687
313,0,2,1,1,99,606,767,684
308,0,2,1,1,98,609,771,684
310,0,2,1,1,96,624,769,675
310,0,2,1,1,95,626,769,674
309,0,2,1,1,92,628,770,673
310,0,2,1,1,90,631,770,676
309,0,2,1,1,89,632,770,677
319,0,2,1,1,86,627,761,681
309,0,2,1,1,83,629,770,686
308,0,2,1,1,82,630,772,690
306,0,2,1,1,81,628,773,693
306,0,2,1,1,79,626,774,701
304,0,2,1,1,78,627,776,704
304,0,2,1,1,78,627,775,704
304,0,2,1,1,138,628,775,708
303,0,2,1,1,130,639,776,707
303,2,2,1,1,129,643,777,705
303,4,2,1,1,123,652,777,708
301,0,2,1,1,123,654,779,708
307,7,2,1,1,52,657,772,705
307,6,2,1,1,65,661,773,706
302,5,2,1,1,67,665,777,710
301,5,2,1,1,70,669,779,717
299,5,2,1,1,79,667,781,727
300,8,2,1,1,85,667,780,736
299,8,2,1,1,89,665,781,743
293,1,2,1,1,87,662,787,749
293,2,2,1,1,91,659,787,755
294,3,2,1,1,90,658,786,757
289,0,2,1,1,89,659,790,763
290,0,2,0,1,91,660,789,762
289,0,2,0,1,88,666,791,762
289,0,2,0,1,84,671,791,761
293,2,2,0,1,78,679,786,763
290,1,2,0,1,116,691,790,765
290,3,2,0,1,118,698,790,773
292,1,2,0,1,120,705,788,758
285,0,2,0,1,113,712,795,763
284,3,2,0,1,107,712,795,777
287,10,2,0,1,106,713,793,782
287,19,2,0,1,104,714,792,789
286,9,2,0,1,105,713,794,796
287,6,2,0,1,100,712,792,802
287,0,2,0,1,104,713,792,808
286,0,2,0,1,99,716,793,809
285,0,2,0,1,97,720,794,810
285,3,2,0,1,74,721,794,813
278,0,2,0,1,78,735,801,815
278,0,2,0,1,83,745,802,813
278,0,2,0,1,83,751,802,810
281,0,2,0,1,72,758,798,818
280,0,2,0,1,70,765,799,822
282,0,2,0,1,70,768,797,827
280,0,2,0,1,65,771,799,833
278,0,2,0,1,111,772,801,838
276,0,2,0,1,119,772,803,853
275,0,2,0,1,126,773,805,863
274,0,2,0,1,131,778,806,871
273,0,2,0,1,134,774,807,885
266,0,2,0,1,135,773,814,886
268,0,2,0,1,139,777,812,891
267,0,2,0,1,146,786,813,897
263,0,2,0,1,77,786,816,900
267,0,2,0,1,81,805,813,898
271,0,2,0,1,82,820,808,889
268,0,2,0,1,85,826,811,891
267,0,2,0,1,89,833,813,890
269,0,2,0,1,93,838,810,898
264,0,2,0,1,99,847,815,904
261,0,2,0,1,109,856,818,912
268,0,2,0,1,115,859,812,924
266,0,2,0,1,121,860,814,934
264,0,2,0,1,128,858,815,950
264,0,2,0,1,132,854,815,964
265,0,2,0,1,136,855,814,971
261,0,2,0,1,144,865,818,975
259,0,2,0,1,145,869,820,973
259,0,2,0,1,146,870,821,975
260,0,2,0,1,151,887,820,971
263,0,2,0,1,158,895,816,973
262,0,2,0,1,160,907,818,969
267,0,2,0,1,153,910,813,972
274,4,2,0,1,147,916,805,979
274,4,2,0,1,147,916,805,979
274,4,2,0,1,147,916,805,979
262,0,2,0,1,145,920,817,1004
262,0,2,0,1,131,921,817,1014
261,0,2,0,1,121,919,818,1033
260,0,2,0,1,123,921,819,1050
259,0,2,0,1,125,923,820,1060
256,0,2,0,1,125,925,824,1066
260,0,2,0,1,208,921,819,1074
265,0,2,0,1,121,928,814,1077
260,0,2,0,1,118,951,820,1076
260,0,2,0,1,116,959,820,1075
258,0,2,0,1,128,976,822,1075
258,0,2,0,1,137,989,822,1079
256,0,2,0,1,149,1001,824,1081
258,0,2,0,1,153,1014,822,1085
255,0,0,0,1,161,1024,824,1087
256,0,0,0,1,155,1029,824,1094
258,0,0,0,1,152,1032,822,1100
257,0,0,0,1,144,1030,822,1120
256,0,0,0,1,142,1031,823,1132
257,0,0,0,1,137,1032,822,1142
264,0,0,0,1,138,1030,815,1146
263,0,0,0,1,135,1032,816,1151
261,0,0,0,1,130,1033,818,1165
260,0,0,0,1,101,1040,819,1162
259,0,0,0,1,199,1045,821,1161
260,0,0,0,1,206,1057,819,1162
259,0,0,0,1,210,1072,821,1164
259,0,0,0,1,214,1078,820,1167
262,0,0,0,1,224,1092,817,1170
261,0,0,0,1,234,1106,819,1177
261,0,0,0,1,240,1116,818,1182
262,0,0,0,1,91,1120,817,1188
260,0,0,0,1,125,1125,819,1191
259,0,0,0,1,131,1130,821,1201
258,0,0,0,1,140,1132,822,1219
261,0,0,0,1,140,1128,818,1232
262,0,0,0,1,140,1125,817,1238
261,0,0,0,1,143,1125,818,1247
262,0,0,0,1,142,1128,817,1248
262,0,0,0,1,145,1134,817,1250
262,0,0,0,1,151,1149,817,1250
261,0,0,0,1,156,1162,818,1249
263,0,0,0,1,155,1163,816,1247
264,0,0,0,1,158,1172,816,1249
265,0,0,0,1,162,1177,815,1255
272,0,0,0,1,165,1177,808,1261
272,0,0,0,1,176,1202,808,1267
267,0,0,0,1,183,1210,812,1273
264,0,0,0,1,189,1213,816,1281
266,0,0,0,1,192,1216,814,1288
267,0,0,0,1,200,1216,813,1302
269,0,0,0,1,203,1216,810,1318
269,0,0,0,1,212,1215,810,1331
267,0,0,0,1,217,1219,812,1336
267,0,0,0,1,216,1220,812,1334
268,0,0,0,1,215,1221,811,1334
267,0,0,0,1,212,1221,813,1334
270,0,0,0,1,216,1228,809,1332
274,0,0,0,1,218,1237,806,1330
275,0,0,0,1,224,1243,804,1335
273,0,0,0,1,230,1255,806,1336
272,2,0,0,1,237,1266,808,1337
272,0,0,0,1,242,1276,807,1342
275,0,0,0,1,247,1285,805,1345
275,0,0,0,1,254,1290,805,1350
275,0,0,0,1,259,1294,805,1357
274,0,0,0,1,264,1296,806,1368
273,0,0,0,1,269,1297,806,1381
275,0,0,0,1,277,1301,805,1393
275,0,0,0,1,282,1300,805,1404
273,0,0,0,1,286,1302,807,1412
271,0,0,0,1,286,1303,809,1414
269,0,0,0,1,292,1307,811,1418
272,0,0,0,1,291,1312,808,1413
274,0,0,0,1,295,1323,806,1413
273,0,0,0,1,298,1331,807,1408
276,0,0,0,1,305,1342,803,1411
274,0,0,0,1,315,1353,806,1419
278,0,0,0,1,321,1361,802,1430
274,0,0,0,1,327,1367,806,1435
274,0,0,0,1,332,1371,805,1440
276,0,0,0,1,336,1374,803,1445
277,0,0,0,1,343,1376,802,1457
279,0,0,0,1,351,1376,800,1477
275,0,0,0,1,354,1374,805,1482
280,0,0,0,1,356,1373,799,1489
280,0,0,0,1,359,1374,800,1494
278,0,0,0,1,364,1379,802,1499
280,0,0,0,1,367,1384,800,1498
280,0,0,0,1,368,1390,799,1497
279,0,0,0,1,372,1396,800,1498
280,0,0,0,1,374,1406,799,1496
282,0,0,0,1,379,1413,798,1499
283,0,0,0,1,388,1427,796,1505
283,0,0,0,1,388,1427,796,1505
283,0,0,0,1,388,1427,796,1505
283,0,0,0,1,388,1427,796,1505
283,0,0,0,1,388,1427,796,1505
283,0,0,0,1,388,1427,796,1505
283,0,0,0,1,388,1427,796,1505
283,0,0,0,1,388,1427,796,1505
283,0,0,0,1,388,1427,796,1505
283,0,0,0,1,388,1427,796,1505
283,0,0,0,1,388,1427,796,1505
393,8,1,0,0,137,433,687,460
393,8,1,0,0,137,433,687,460
393,8,1,0,0,137,433,687,460
391,9,1,0,0,125,429,688,456
391,9,1,0,0,125,429,688,456
391,9,1,0,0,125,429,688,456
391,9,1,0,0,125,429,688,456
391,9,1,0,0,125,429,688,456
391,9,1,0,0,125,429,688,456
391,9,1,0,0,125,429,688,456
391,9,2,0,0,125,429,688,456
391,9,2,0,0,125,429,688,456
391,9,2,0,0,125,429,688,456
381,4,2,0,0,102,412,698,450
381,4,2,0,0,102,412,698,450
380,3,2,0,0,96,409,699,448
380,3,2,1,0,96,409,699,448
380,3,2,1,0,96,409,699,448
380,3,2,1,0,96,409,699,448
380,3,2,1,0,96,409,699,448
388,10,2,1,0,88,411,691,438
388,10,2,1,0,88,411,691,438
388,10,2,1,0,88,411,691,438
388,10,2,1,0,88,411,691,438
388,10,2,1,0,88,411,691,438
388,10,2,1,0,88,411,691,438
388,10,2,1,0,88,411,691,438
388,10,2,1,0,88,411,691,438
388,10,2,1,0,88,411,691,438
388,10,2,1,0,88,411,691,438
388,10,2,1,0,88,411,691,438
390,8,2,1,0,253,402,690,437
390,8,2,1,0,253,402,690,437
390,8,2,1,0,253,402,690,437
390,8,2,1,0,253,402,690,437
390,8,2,1,0,253,402,690,437
390,8,2,1,0,253,402,690,437
390,8,2,1,0,253,402,690,437
390,8,2,1,0,253,402,690,437
390,8,2,1,0,253,402,690,437
390,8,2,1,0,253,402,690,437
390,8,2,1,0,253,402,690,437
396,13,2,1,0,229,384,684,431
394,12,2,1,0,227,385,685,430
395,13,2,1,0,227,386,685,433
395,13,2,1,0,227,386,685,433
395,13,2,1,0,227,386,685,433
395,13,2,1,0,227,386,685,433
395,13,2,1,0,227,386,685,433
395,13,2,1,0,227,386,685,433
396,18,2,1,0,232,386,683,443
391,11,2,1,0,227,385,688,435
391,11,3,1,0,225,386,688,431
390,12,3,1,0,221,385,690,429
390,12,3,1,0,223,386,689,434
396,19,3,1,0,228,387,684,441
396,19,3,1,0,228,387,684,441
390,13,3,1,0,64,393,690,432
391,14,3,1,0,61,392,689,442
386,11,3,1,0,64,394,694,433
384,9,3,1,0,223,394,695,433
379,7,3,1,0,62,398,701,443
378,8,3,1,0,226,401,702,440
377,10,3,1,0,225,403,702,442
378,11,3,1,0,221,405,701,441
377,12,3,1,0,220,409,703,444
376,11,3,1,0,220,415,704,453
372,7,3,1,0,219,417,707,453
371,8,3,1,0,218,423,708,456
373,12,3,1,0,220,429,706,462
373,12,3,1,0,218,433,707,466
370,9,3,1,0,65,440,710,473
369,9,3,1,0,64,444,711,480
368,10,3,1,0,51,448,712,484
366,8,3,1,0,68,460,714,492
366,8,3,1,0,222,464,714,497
365,10,3,1,0,70,470,714,503
363,10,3,1,0,71,480,716,513
364,11,3,1,0,69,487,716,517
365,12,3,1,0,72,494,715,524
361,10,3,1,0,72,504,719,536
361,10,3,1,0,216,513,719,545
361,10,3,1,0,73,524,718,554
358,10,3,1,0,70,533,722,560
359,9,3,1,0,73,542,720,572
358,8,3,1,0,71,556,721,580
357,7,3,1,0,214,563,723,599
358,10,3,1,0,73,576,721,606
357,9,3,1,0,210,584,723,617
356,11,3,1,0,208,596,724,626
354,9,3,1,0,211,610,726,645
352,9,3,1,0,73,622,728,651
353,10,3,1,0,72,637,727,664
353,12,3,1,0,75,648,726,675
352,7,3,1,0,209,660,728,695
352,11,3,1,0,208,676,727,702
356,13,3,1,0,208,689,723,718
351,10,3,1,0,205,704,729,734
353,10,3,1,0,207,718,727,748
355,14,3,1,0,209,734,725,764
348,5,3,1,0,206,748,731,778
352,11,3,1,0,78,763,728,793
356,13,3,1,0,80,779,723,806
352,9,3,1,0,77,794,728,823
353,10,3,1,0,78,810,727,842
355,10,3,1,0,77,826,725,853
351,6,3,1,0,77,843,728,872
354,9,3,1,0,79,859,725,889
354,9,3,1,0,79,859,725,889
352,11,3,1,0,80,892,727,919
352,11,3,0,0,80,892,727,919
355,14,3,0,0,80,922,725,951
353,8,3,0,0,79,938,726,968
354,11,3,0,0,81,955,726,988
356,16,3,0,0,219,969,723,999
354,16,3,0,0,76,986,725,1015
356,17,3,0,0,81,1000,723,1029
364,24,3,0,0,77,1016,716,1049
352,9,3,0,0,77,1032,727,1068
359,19,3,0,0,76,1049,720,1079
357,21,3,0,0,76,1063,723,1096
353,17,3,0,0,238,1079,726,1115
346,10,3,0,0,237,1092,734,1128
350,16,3,0,0,240,1108,730,1144
348,15,3,0,0,73,1117,732,1161
361,32,3,0,0,244,1132,719,1171
347,18,3,1,0,250,1148,732,1193
344,16,3,1,0,256,1163,735,1214
348,22,3,1,0,262,1178,732,1223
342,16,3,1,0,270,1194,737,1245
339,13,3,1,0,269,1203,740,1263
343,19,3,1,0,271,1212,736,1281
343,19,3,1,0,271,1212,736,1281
343,22,3,1,0,276,1234,736,1302
346,28,3,1,0,290,1261,734,1315
341,27,3,1,0,289,1266,739,1332
346,33,3,1,0,303,1297,734,1345
335,24,3,1,0,305,1305,745,1359
337,31,3,1,0,321,1325,742,1378
342,35,3,1,0,326,1341,738,1386
338,32,3,1,0,93,1350,741,1406
328,23,3,1,0,109,1367,751,1433
338,36,3,1,0,109,1379,741,1439
331,31,3,1,0,111,1393,748,1450
327,28,3,1,0,122,1407,753,1472
326,34,3,1,0,379,1425,754,1497
329,37,3,1,0,138,1445,751,1499
328,39,3,1,0,161,1463,751,1535
319,32,3,1,0,164,1480,760,1558
316,29,3,1,0,174,1499,764,1574
311,35,3,1,0,190,1522,768,1602
305,30,3,1,0,202,1541,775,1633
301,55,3,1,0,223,1555,779,1662
296,58,3,1,0,238,1578,783,1680
282,50,3,1,0,249,1599,797,1707
290,101,3,1,0,274,1629,789,1742
290,115,3,1,0,290,1663,789,1764
290,158,3,1,0,315,1689,789,1806
303,247,3,1,0,340,1717,776,1846
288,239,3,1,0,365,1755,792,1868
274,248,3,1,0,386,1791,806,1902
272,277,3,1,0,406,1824,808,1919
337,27,3,1,0,420,1867,742,1918
337,27,3,1,0,420,1867,742,1918
337,27,3,1,0,420,1867,742,1918
337,27,3,1,0,420,1867,742,1918
337,27,3,1,0,420,1867,742,1918
337,27,3,1,0,420,1867,742,1918
337,27,3,1,0,420,1867,742,1918
337,27,3,1,0,420,1867,742,1918
364,0,2,1,1,932,1228,716,1260
367,0,2,1,1,1139,1229,712,1262
366,0,2,1,1,1073,1227,713,1260
365,0,2,1,1,1029,1224,714,1259
366,0,2,1,1,1055,1221,714,1259
362,0,2,1,1,1028,1219,717,1257
362,0,2,1,1,962,1219,718,1260
361,0,2,1,1,946,1216,718,1258
360,0,2,1,1,1080,1211,720,1262
359,0,2,1,1,923,1214,720,1259
358,0,2,1,1,1246,1212,722,1259
359,1,2,0,1,1244,1212,720,1257
363,3,2,0,1,1008,1213,716,1254
359,1,2,0,1,851,1212,720,1251
361,0,2,0,1,1173,1206,719,1248
360,0,2,0,1,896,1203,719,1251
359,0,2,0,1,839,1204,721,1246
360,0,2,0,1,1083,1202,720,1241
364,0,2,0,1,963,1199,716,1235
364,4,2,0,1,935,1197,715,1233
360,2,2,0,1,897,1192,719,1233
357,0,2,0,1,1272,1190,722,1232
355,0,2,0,1,1047,1189,725,1234
355,0,2,0,1,976,1181,725,1235
354,0,2,0,1,932,1177,726,1236
353,0,2,0,1,1151,1175,727,1234
351,0,2,0,1,1042,1173,728,1229
350,0,2,0,1,958,1166,729,1228
351,0,2,0,1,809,1164,728,1224
351,0,2,0,1,1191,1168,729,1219
348,0,2,0,1,1142,1167,731,1215
350,0,2,0,1,970,1165,729,1209
351,0,2,0,1,1294,1163,728,1205
353,0,2,0,1,1040,1162,727,1200
348,0,2,0,1,1216,1160,732,1196
346,0,2,0,1,1223,1156,733,1195
345,0,2,0,1,1143,1150,734,1192
344,0,2,0,1,1023,1147,736,1192
340,0,2,0,1,1058,1143,739,1191
342,0,2,0,1,1171,1136,737,1193
343,2,2,0,1,823,1133,737,1190
340,0,2,0,1,1109,1128,739,1184
340,0,2,0,1,803,1126,739,1182
341,0,2,0,1,1046,1122,738,1176
341,0,2,0,1,1275,1121,739,1174
342,1,2,0,1,823,1119,738,1167
342,1,2,0,1,800,1118,738,1157
346,5,2,0,1,941,1118,733,1154
337,0,2,0,1,1006,1112,742,1150
336,0,2,0,1,1107,1104,743,1149
336,0,2,0,1,1293,1099,743,1149
334,0,2,0,1,825,1093,746,1147
335,0,2,0,1,1218,1088,745,1147
334,0,2,0,1,1136,1082,746,1145
333,0,2,0,1,1207,1076,747,1142
332,1,2,0,1,1100,1073,748,1141
331,2,2,0,1,1223,1071,749,1137
332,4,2,0,1,1099,1073,748,1133
331,2,2,0,1,1279,1073,749,1129
330,2,2,0,1,1242,1069,749,1117
332,4,2,0,1,807,1068,748,1112
330,0,2,0,1,1265,1059,749,1104
329,0,2,0,1,1107,1057,750,1101
328,0,2,0,1,1049,1053,751,1098
327,0,2,0,1,1065,1049,752,1094
326,0,2,0,1,924,1044,754,1092
327,1,2,0,1,913,1037,753,1088
328,0,2,0,1,1100,1029,751,1089
329,2,2,0,1,1272,1026,751,1088
326,0,2,0,1,1265,1020,753,1086
322,0,2,0,1,1194,1014,757,1082
325,0,2,0,1,868,1012,755,1075
326,2,2,0,1,1275,1012,754,1068
326,2,2,0,1,1161,1007,753,1060
332,1,2,0,1,846,1009,748,1056
342,0,2,0,1,1203,1008,737,1047
350,3,2,0,1,824,1003,730,1045
344,3,2,0,1,1071,1000,735,1038
344,1,2,0,1,1270,996,735,1035
347,3,2,0,1,1185,989,733,1036
341,0,2,0,1,1047,979,738,1035
342,1,2,0,1,1095,968,737,1034
342,2,2,0,1,1076,963,737,1032
342,1,2,0,1,870,955,738,1030
341,1,2,0,1,869,952,738,1027
341,0,2,0,1,950,951,739,1026
340,0,2,0,1,889,952,739,1020
341,0,2,0,1,849,952,739,1009
341,1,2,0,1,1189,952,739,1003
341,1,2,0,1,1153,948,738,993
340,2,2,0,1,1237,945,739,986
340,6,2,0,1,1149,943,739,985
337,0,2,0,1,1112,935,743,980
337,0,2,0,1,1114,928,743,976
329,0,2,0,1,1160,918,750,974
335,2,2,0,1,1061,913,744,972
335,4,2,0,1,1036,908,744,971
334,3,2,0,1,1176,898,746,966
332,1,2,0,1,922,893,748,961
332,1,2,0,1,1292,891,748,959
334,3,2,0,1,1221,889,746,954
333,2,2,0,1,1185,888,747,948
333,2,3,0,1,869,888,747,939
332,0,3,0,1,1286,879,748,933
330,0,3,0,1,952,880,750,927
330,0,3,0,1,1010,872,750,917
328,0,3,0,1,892,868,752,916
329,0,3,0,1,999,862,751,913
327,2,3,0,1,1216,855,752,912
326,0,3,0,1,907,845,753,911
325,1,3,0,1,917,835,755,912
326,2,3,0,1,1251,829,754,907
327,3,3,0,1,1004,824,753,902
323,2,3,0,1,1147,823,756,901
323,2,3,0,1,855,822,756,897
324,6,3,0,1,1122,818,755,887
324,6,3,0,1,1119,816,756,878
325,5,3,0,1,869,813,755,867
323,0,3,0,1,1223,808,757,859
321,0,3,0,1,1051,804,758,851
320,0,3,0,1,1176,795,759,845
319,2,3,0,1,968,789,761,843
317,3,3,0,1,939,784,763,840
315,0,3,0,1,1184,774,765,836
314,2,3,0,1,1092,762,765,834
313,2,3,0,1,907,749,767,830
313,2,3,0,1,1127,748,767,828
313,0,3,0,1,840,742,767,826
315,2,3,0,1,807,737,765,818
313,0,3,0,1,1081,731,767,812
315,2,3,0,1,1267,730,765,802
312,0,3,0,1,1249,726,768,789
312,0,3,0,1,878,721,768,781
312,0,3,0,1,1159,716,768,773
309,0,3,0,1,1047,710,771,763
306,0,3,0,1,1214,703,774,760
306,3,3,0,1,1285,691,774,754
304,3,3,0,1,855,685,775,751
303,2,3,0,1,1155,670,777,747
303,2,3,0,1,980,655,776,739
300,1,3,0,1,1165,647,779,740
300,4,3,0,1,1249,641,779,734
299,4,3,0,1,1147,637,780,730
300,6,3,0,1,926,633,779,713
298,2,3,0,1,1104,624,782,710
296,2,3,0,1,903,614,783,689
294,0,3,0,1,1230,609,786,681
292,0,3,0,1,988,600,788,663
290,1,3,0,1,1020,590,789,652
287,0,3,0,1,1214,580,792,640
287,0,3,0,1,1153,563,793,631
279,0,3,0,1,1140,553,800,624
281,1,3,0,1,1198,535,799,615
279,2,3,0,1,1021,511,800,609
276,2,3,0,1,1149,500,803,598
273,3,3,0,1,1266,486,807,597
270,0,3,0,1,1232,473,809,584
268,3,3,0,1,1028,463,811,571
268,4,3,0,1,930,458,812,551
268,8,3,0,1,1132,445,811,528
262,7,3,0,1,1059,428,818,506
267,8,3,0,1,1208,418,813,490
266,7,3,0,1,1130,403,814,471
259,9,3,0,1,956,378,821,453
257,1,3,0,1,990,365,823,437
255,7,3,0,1,1174,345,824,425
252,7,3,0,1,1036,318,827,408
249,1,2,0,1,1110,291,830,399
245,4,2,0,1,869,261,835,383
239,8,2,0,1,931,247,841,366
237,8,2,0,1,1077,234,843,350
233,17,2,0,1,946,212,846,326
226,0,2,0,1,1114,195,854,296
230,0,2,0,1,1236,172,849,261
225,0,2,0,1,834,76,855,237
226,6,2,0,1,1153,124,854,205
226,6,2,0,1,1134,124,854,205
226,6,2,0,1,1001,124,854,205
226,6,2,0,1,985,124,854,205
226,6,2,1,0,1273,124,854,205
226,6,2,1,0,977,124,854,205
226,6,2,1,0,1147,124,854,205
226,6,2,1,0,819,124,854,205
226,6,2,1,0,1232,124,854,205
226,6,2,1,0,1094,124,854,205
